<svg width="204" height="51" viewBox="0 0 204 51" fill="none" xmlns="http://www.w3.org/2000/svg">
<g filter="url(#filter0_dd)">
<path d="M87.9701 37.6784C86.7523 37.6784 86.2318 36.2822 86.2318 32.44C86.2318 30.4457 87.3604 29.9475 90.5791 29.9475C91.4244 29.9475 92.0993 29.9529 92.7472 29.9625C91.7205 32.6796 90.3435 37.6784 87.9701 37.6784ZM81.4435 35.0585C81.4435 36.0755 81.5565 36.9434 81.7618 37.6784H64.7401C62.4765 37.6784 61.0295 37.2281 61.0295 35.4322V30.4457H66.3909C66.8286 29.3247 67.1168 28.2994 67.2616 27.2058H61.0311C61.0566 25.6672 61.1871 24.293 61.3176 22.7161C59.288 23.3389 57.6946 24.0617 56.3877 25.31V27.2058H53.6322C53.4014 28.5527 53.4013 29.5724 53.344 30.4457H56.3877V35.6827C56.3877 39.3483 58.9697 40.9197 62.5068 40.9197H85.6491C88.4842 40.9197 90.6619 38.9213 92.7552 34.3988V40.9197H97.3938V27.2058C95.3069 27.0552 93.3919 26.9539 91.305 26.9539C85.5632 26.9539 81.4435 29.0003 81.4435 35.0585ZM105.805 33.5378V32.1923C105.805 30.4457 105.659 28.9496 105.371 27.2058H100.875C101.02 28.9496 101.165 30.4457 101.165 32.1923V40.9197H105.805C105.805 36.0304 107.631 30.4703 112.473 31.0699C112.473 30.1966 112.329 28.2009 112.04 26.9539C108.505 27.2181 106.773 29.8968 105.805 33.5378ZM41.8875 37.6784C40.6697 37.6784 40.1476 36.2822 40.1476 32.44C40.1476 30.4457 41.2794 29.9475 44.4965 29.9475C45.3418 29.9475 46.0167 29.9529 46.6678 29.9625C45.6379 32.6796 44.2641 37.6784 41.8875 37.6784ZM35.364 35.0585C35.364 39.1991 37.1024 41.1688 39.4233 41.1688C42.2663 41.1688 44.5363 39.0048 46.6742 34.3919V40.9197H51.3144V27.2058C49.2259 27.0552 47.3125 26.9539 45.2224 26.9539C39.4806 26.9539 35.364 29.0003 35.364 35.0585ZM186.569 28.7005C186.569 25.2854 183.814 23.2144 178.884 23.2144C176.159 23.2144 174.159 23.7126 172.94 24.2136C172.244 25.0595 171.926 26.0341 171.49 27.5767C173.346 26.9539 175.143 26.457 177.87 26.457C180.044 26.457 181.786 27.255 181.786 29.4492C181.786 31.8159 180.075 33.5378 170.764 38.1753C170.764 38.6749 170.794 39.6714 171.055 40.9197H186.423C186.861 39.7973 187.149 38.8008 187.294 37.6784H174.214C180.748 35.7566 186.569 33.75 186.569 28.7005ZM24.436 37.0898L24.1972 36.9789C21.4146 35.7087 17.6722 33.765 17.6722 30.2226C17.6722 26.9785 20.1109 25.4578 23.0383 25.4578C26.2873 25.4578 28.258 27.4275 28.258 30.8714C28.258 33.2421 26.7394 35.3337 24.436 37.0898ZM33.3328 41.1688L25.6935 37.6661C30.017 36.3151 33.188 33.65 33.188 29.8722C33.188 24.7844 28.7499 22.2179 23.0383 22.2179C17.79 22.2179 12.7438 25.1101 12.7438 30.6962C12.7438 35.4089 16.9192 38.2259 21.5006 40.2955L36.2316 46.9041C36.2316 43.9872 35.8273 42.3145 33.3328 41.1688ZM141.908 39.6714C140.606 39.6714 136.544 37.4019 136.544 31.3204C136.544 28.3254 138.575 26.457 141.908 26.457C145.243 26.457 147.276 28.3254 147.276 31.3204C147.276 37.4019 143.215 39.6714 141.908 39.6714ZM141.908 23.2144C136.111 23.2144 131.759 26.2065 131.759 31.0699C131.759 37.4279 138.865 41.1688 141.908 41.1688C144.955 41.1688 152.058 37.4279 152.058 31.0699C152.058 26.2065 147.711 23.2144 141.908 23.2144ZM141.974 30.0132C140.96 30.6346 140.089 31.3614 139.322 32.1923C140.089 33.0231 140.96 33.7472 141.974 34.3714C142.988 33.7472 143.855 33.0231 144.629 32.1923C143.855 31.3614 142.988 30.6346 141.974 30.0132ZM168.591 28.7005C168.591 25.2854 165.834 23.2144 160.902 23.2144C158.179 23.2144 156.178 23.7126 154.958 24.2136C154.264 25.0595 153.944 26.0341 153.508 27.5767C155.366 26.9539 157.165 26.457 159.89 26.457C162.064 26.457 163.806 27.255 163.806 29.4492C163.806 31.8159 162.095 33.5378 152.786 38.1753C152.786 38.6749 152.814 39.6714 153.075 40.9197H168.446C168.879 39.7973 169.171 38.8008 169.315 37.6784H156.234C162.77 35.7566 168.591 33.75 168.591 28.7005ZM129.438 28.7005C129.438 25.2854 126.686 23.2144 121.756 23.2144C119.029 23.2144 117.028 23.7126 115.812 24.2136C115.114 25.0595 114.794 26.0341 114.361 27.5767C116.216 26.9539 118.015 26.457 120.742 26.457C122.914 26.457 124.654 27.255 124.654 29.4492C124.654 31.8159 122.943 33.5378 113.636 38.1753C113.636 38.6749 113.664 39.6714 113.927 40.9197H129.296C129.732 39.7973 130.02 38.8008 130.164 37.6784H117.083C123.616 35.7566 129.438 33.75 129.438 28.7005Z" fill="white"/>
<path d="M169.017 17.3399C168.36 17.4823 167.637 17.6164 166.852 17.7437C166.061 17.871 165.085 17.9326 163.918 17.9326C162.769 17.9326 161.605 17.7998 160.431 17.5316C159.256 17.2646 158.197 16.8335 157.255 16.2394C156.311 15.6467 155.537 14.8652 154.939 13.8988C154.335 12.9324 154.038 11.747 154.038 10.3495C154.038 9.06558 154.286 7.9377 154.778 6.97133C155.27 6.0036 155.957 5.20012 156.835 4.55405C157.713 3.91208 158.757 3.43301 159.964 3.11545C161.171 2.79652 162.481 2.63911 163.893 2.63911C164.781 2.63911 165.642 2.71165 166.48 2.86085C167.318 3.00731 168.156 3.18799 168.991 3.40016L168.625 6.60039C167.885 6.24587 167.15 5.98444 166.421 5.81607C165.687 5.64634 164.927 5.56148 164.141 5.56148C163.318 5.56148 162.581 5.68056 161.924 5.92284C161.266 6.16101 160.704 6.49363 160.235 6.91658C159.765 7.34228 159.404 7.84736 159.149 8.4332C158.894 9.01768 158.77 9.6569 158.77 10.3495C158.77 11.0695 158.912 11.7197 159.202 12.3C159.487 12.8777 159.881 13.3677 160.383 13.7715C160.884 14.1725 161.488 14.4805 162.193 14.6927C162.899 14.9035 163.67 15.0102 164.51 15.0102C165.265 15.0102 166.013 14.9363 166.752 14.7871C167.492 14.6407 168.172 14.46 168.796 14.2478L169.017 17.3399Z" fill="white"/>
<path d="M185.525 12.065C185.525 13.0834 185.344 13.9566 184.982 14.6931C184.621 15.4267 184.11 16.0345 183.445 16.5135C182.778 16.9954 181.982 17.3512 181.054 17.5839C180.125 17.8194 179.102 17.933 177.984 17.933C176.869 17.933 175.847 17.8194 174.917 17.5839C173.99 17.3512 173.195 16.9954 172.528 16.5135C171.862 16.0345 171.351 15.4267 170.99 14.6931C170.628 13.9566 170.447 13.0834 170.447 12.065V2.89133H175.03V11.4093C175.03 11.9035 175.075 12.3647 175.165 12.7959C175.254 13.2284 175.414 13.6076 175.633 13.9402C175.855 14.2715 176.155 14.5329 176.533 14.7232C176.908 14.9148 177.395 15.0106 177.984 15.0106C178.577 15.0106 179.062 14.9148 179.441 14.7232C179.82 14.5329 180.118 14.2715 180.34 13.9402C180.56 13.6076 180.718 13.2284 180.808 12.7959C180.896 12.3647 180.944 11.9035 180.944 11.4093V2.89133H185.525V12.065Z" fill="white"/>
<path d="M192.401 9.71359H193.582C193.977 9.71359 194.346 9.68074 194.691 9.61914C195.035 9.55344 195.336 9.4412 195.589 9.27968C195.844 9.11817 196.046 8.90463 196.194 8.64319C196.341 8.38312 196.415 8.06146 196.415 7.68093C196.415 7.29767 196.341 6.98011 196.194 6.72825C196.046 6.47366 195.844 6.26834 195.589 6.1123C195.336 5.95762 195.035 5.84675 194.691 5.78516C194.346 5.71946 193.977 5.68797 193.582 5.68797H192.401V9.71359ZM187.816 2.89153H193.286C195.931 2.89153 197.878 3.28437 199.128 4.06732C200.374 4.85301 201 6.07671 201 7.7439C201 9.24136 200.4 10.4103 199.201 11.2494C197.999 12.0912 196.325 12.51 194.172 12.51H192.401V17.6786H187.816V2.89153Z" fill="white"/>
<path d="M58.4695 2.89151H63.1512L65.3702 14.2484H65.4196L67.7325 2.89151H73.5476L75.9624 14.2484H76.0133L78.2547 2.89151H82.7151L78.8691 17.6799H72.9825L70.5437 6.32444H70.4928L68.2276 17.6799H62.2884L58.4695 2.89151Z" fill="white"/>
<path d="M87.6168 10.2858C87.6168 10.8949 87.69 11.4835 87.8396 12.0556C87.9861 12.6264 88.2137 13.1315 88.5273 13.5695C88.8393 14.0075 89.2421 14.3565 89.7371 14.618C90.229 14.8794 90.818 15.0108 91.5104 15.0108C92.1981 15.0108 92.7935 14.8794 93.2854 14.618C93.7772 14.3565 94.1784 14.0075 94.4888 13.5695C94.8024 13.1315 95.0332 12.6264 95.1813 12.0556C95.3277 11.4835 95.4025 10.8949 95.4025 10.2858C95.4025 9.65201 95.3277 9.047 95.1813 8.47622C95.0332 7.90406 94.8024 7.40172 94.4888 6.96918C94.1784 6.54074 93.7772 6.19718 93.2854 5.94258C92.7935 5.68799 92.1981 5.56343 91.5104 5.56343C90.818 5.56343 90.229 5.68799 89.7371 5.94258C89.2421 6.19718 88.8393 6.54074 88.5273 6.96918C88.2137 7.40172 87.9861 7.90406 87.8396 8.47622C87.69 9.047 87.6168 9.65201 87.6168 10.2858ZM82.8842 10.2858C82.8842 9.09902 83.0704 8.03273 83.4397 7.08689C83.8075 6.14106 84.3551 5.33895 85.0778 4.68329C85.8005 4.02627 86.7015 3.51982 87.7744 3.16804C88.8505 2.81489 90.0953 2.63695 91.5104 2.63695C92.9208 2.63695 94.1657 2.81489 95.2418 3.16804C96.3178 3.51982 97.2172 4.02627 97.9399 4.68329C98.6626 5.33895 99.2087 6.14106 99.5796 7.08689C99.9489 8.03273 100.132 9.09902 100.132 10.2858C100.132 11.4574 99.9489 12.5169 99.5796 13.4641C99.2087 14.4113 98.6563 15.2161 97.9272 15.8786C97.1965 16.5425 96.294 17.0517 95.2163 17.4035C94.1434 17.758 92.9033 17.9346 91.5104 17.9346C90.0953 17.9346 88.8568 17.758 87.7871 17.4035C86.7237 17.0517 85.8227 16.5425 85.0905 15.8786C84.3598 15.2161 83.8075 14.4113 83.4397 13.4641C83.0704 12.5169 82.8842 11.4574 82.8842 10.2858Z" fill="white"/>
<path d="M106.44 9.0364H107.645C108.008 9.0364 108.39 9.02545 108.792 9.00355C109.196 8.98302 109.557 8.91595 109.877 8.80371C110.197 8.68873 110.465 8.52037 110.676 8.29452C110.891 8.0673 110.996 7.74426 110.996 7.31857C110.996 6.98048 110.904 6.70261 110.713 6.48361C110.525 6.2646 110.28 6.09761 109.976 5.98537C109.672 5.87313 109.318 5.79647 108.914 5.75267C108.513 5.70887 108.091 5.68834 107.645 5.68834H106.44V9.0364ZM101.859 2.8919H110.038C110.791 2.8919 111.509 2.96718 112.181 3.11364C112.854 3.26284 113.446 3.49417 113.956 3.80488C114.462 4.1156 114.861 4.5016 115.149 4.96698C115.438 5.43511 115.581 5.98537 115.581 6.62049C115.581 7.60875 115.31 8.42182 114.766 9.0583C114.226 9.69205 113.395 10.1232 112.279 10.3504V10.3915C112.641 10.475 112.932 10.6091 113.155 10.7953C113.376 10.9787 113.569 11.2073 113.733 11.4824C113.898 11.7589 114.048 12.0765 114.188 12.4365C114.33 12.7965 114.505 13.203 114.721 13.6561L116.394 17.679H111.617L110.629 15.0112C110.398 14.3747 110.18 13.8518 109.976 13.4425C109.771 13.0346 109.546 12.7089 109.31 12.4693C109.072 12.2271 108.801 12.0628 108.495 11.9711C108.191 11.878 107.828 11.8328 107.402 11.8328H106.44V17.679H101.859V2.8919Z" fill="white"/>
<path d="M118.366 2.89151H122.948V14.7562H130.044V17.6799H118.366V2.89151Z" fill="white"/>
<path d="M136.229 14.7555H138.003C139.727 14.7555 141.05 14.3818 141.968 13.6317C142.888 12.8843 143.35 11.7701 143.35 10.285C143.35 8.80259 142.879 7.68702 141.943 6.93829C141.007 6.18956 139.695 5.81451 138.003 5.81451H136.229V14.7555ZM131.645 2.89077H137.902C139.399 2.89077 140.771 3.00575 142.017 3.23023C143.267 3.45609 144.337 3.84893 145.235 4.40739C146.128 4.96449 146.828 5.71733 147.328 6.66316C147.829 7.60763 148.081 8.79574 148.081 10.222C148.081 11.6072 147.824 12.7721 147.315 13.7179C146.806 14.6651 146.101 15.4303 145.196 16.0161C144.294 16.602 143.218 17.0249 141.968 17.2864C140.72 17.5478 139.365 17.6792 137.902 17.6792H131.645V2.89077Z" fill="white"/>
<path fill-rule="evenodd" clip-rule="evenodd" d="M3 2.89151V17.6799H8.35181V12.3389H12.2057L13.5763 9.10719H8.35181V6.11227H14.8402L16.206 2.89151H3Z" fill="white"/>
<path fill-rule="evenodd" clip-rule="evenodd" d="M17.8443 17.6786H23.1961V2.89014H17.8443V17.6786Z" fill="white"/>
<path fill-rule="evenodd" clip-rule="evenodd" d="M26.8801 2.89151V17.6799H32.2351V12.3389H36.0858L37.4564 9.10719H32.2351V6.11227H38.7203L40.0877 2.89151H26.8801Z" fill="white"/>
<path fill-rule="evenodd" clip-rule="evenodd" d="M48.423 12.8512L46.2819 6.69164L44.2157 12.8512H48.423ZM55.4128 17.6803H50.0069L49.3081 15.6928H43.259L42.5888 17.6803H37.3198L43.5853 2.89187H49.1505L55.4128 17.6803Z" fill="white"/>
</g>
<defs>
<filter id="filter0_dd" x="0" y="0.636963" width="204" height="50.2671" filterUnits="userSpaceOnUse" color-interpolation-filters="sRGB">
<feFlood flood-opacity="0" result="BackgroundImageFix"/>
<feColorMatrix in="SourceAlpha" type="matrix" values="0 0 0 0 0 0 0 0 0 0 0 0 0 0 0 0 0 0 127 0"/>
<feOffset dy="1"/>
<feGaussianBlur stdDeviation="1.5"/>
<feColorMatrix type="matrix" values="0 0 0 0 0.290196 0 0 0 0 0.00784314 0 0 0 0 0.0941176 0 0 0 0.2 0"/>
<feBlend mode="normal" in2="BackgroundImageFix" result="effect1_dropShadow"/>
<feColorMatrix in="SourceAlpha" type="matrix" values="0 0 0 0 0 0 0 0 0 0 0 0 0 0 0 0 0 0 127 0"/>
<feOffset dy="1"/>
<feGaussianBlur stdDeviation="0.5"/>
<feColorMatrix type="matrix" values="0 0 0 0 0.137255 0 0 0 0 0 0 0 0 0 0.0431373 0 0 0 0.14 0"/>
<feBlend mode="normal" in2="effect1_dropShadow" result="effect2_dropShadow"/>
<feBlend mode="normal" in="SourceGraphic" in2="effect2_dropShadow" result="shape"/>
</filter>
</defs>
</svg>
