<?xml version="1.0" encoding="utf-8"?>
<!-- Generator: Adobe Illustrator 25.0.0, SVG Export Plug-In . SVG Version: 6.00 Build 0)  -->
<svg version="1.1"
	 id="svg10190" xmlns:cc="http://creativecommons.org/ns#" xmlns:dc="http://purl.org/dc/elements/1.1/" xmlns:rdf="http://www.w3.org/1999/02/22-rdf-syntax-ns#" xmlns:svg="http://www.w3.org/2000/svg"
	 xmlns="http://www.w3.org/2000/svg" xmlns:xlink="http://www.w3.org/1999/xlink" x="0px" y="0px" viewBox="0 0 250.7 300"
	 style="enable-background:new 0 0 250.7 300;" xml:space="preserve">
<style type="text/css">
	.st0{fill:#FFFFFF;}
	.st1{fill:#ACA9A6;}
	.st2{fill:#BCBAB7;}
	.st3{fill:#CCC9C6;}
	.st4{fill:#BBB8B5;}
	.st5{clip-path:url(#SVGID_2_);}
	.st6{fill:url(#path148_1_);}
	.st7{clip-path:url(#SVGID_4_);}
	.st8{fill:#9A9794;}
	.st9{clip-path:url(#SVGID_6_);}
	.st10{fill:url(#path216_1_);}
	.st11{clip-path:url(#SVGID_8_);}
	.st12{opacity:0.28;clip-path:url(#SVGID_10_);}
	.st13{clip-path:url(#SVGID_12_);}
	.st14{fill:url(#path282_1_);}
	.st15{opacity:0.33;clip-path:url(#SVGID_14_);}
	.st16{clip-path:url(#SVGID_16_);}
	.st17{fill:#797775;}
	.st18{opacity:0.55;clip-path:url(#SVGID_18_);}
	.st19{clip-path:url(#SVGID_20_);}
	.st20{fill:url(#path374_1_);}
	.st21{opacity:0.44;clip-path:url(#SVGID_22_);}
	.st22{clip-path:url(#SVGID_24_);}
	.st23{fill:url(#path442_1_);}
	.st24{opacity:0.44;clip-path:url(#SVGID_26_);}
	.st25{clip-path:url(#SVGID_28_);}
	.st26{fill:url(#path510_1_);}
	.st27{clip-path:url(#SVGID_30_);}
	.st28{fill:url(#path578_1_);}
	.st29{clip-path:url(#SVGID_32_);}
	.st30{fill:#EFECE8;}
	.st31{fill:#DAD7D3;}
	.st32{fill:url(#path618-8_1_);}
	.st33{clip-path:url(#SVGID_34_);}
	.st34{fill:#F6F2EE;}
	.st35{fill:#EBE7E3;}
	.st36{fill:#FFFBF7;}
	.st37{clip-path:url(#SVGID_36_);}
	.st38{fill:url(#path702_1_);}
	.st39{clip-path:url(#SVGID_38_);}
	.st40{fill:#D2CFCB;}
	.st41{fill:#DEDBD7;}
	.st42{fill:#F2EFEA;}
	.st43{fill:#E7E4E0;}
	.st44{clip-path:url(#SVGID_40_);}
	.st45{fill:url(#path792_1_);}
	.st46{clip-path:url(#SVGID_42_);}
	.st47{clip-path:url(#SVGID_44_);}
	.st48{fill:url(#path864_1_);}
	.st49{clip-path:url(#SVGID_46_);}
	.st50{clip-path:url(#SVGID_48_);}
	.st51{fill:url(#path964_1_);}
	.st52{clip-path:url(#SVGID_50_);}
	.st53{clip-path:url(#SVGID_52_);}
	.st54{fill:url(#path1064_1_);}
	.st55{clip-path:url(#SVGID_54_);}
	.st56{fill:url(#path1120_1_);}
	.st57{clip-path:url(#SVGID_56_);}
	.st58{fill:url(#path1182_1_);}
	.st59{clip-path:url(#SVGID_58_);}
	.st60{fill:url(#path1244_1_);}
	.st61{clip-path:url(#SVGID_60_);}
	.st62{fill:#E1DEDA;}
	.st63{opacity:0.43;clip-path:url(#SVGID_62_);}
	.st64{fill:url(#path1282_1_);}
	.st65{fill:url(#path1324_1_);}
	.st66{fill:url(#path1346_1_);}
	.st67{fill:url(#path1368_1_);}
	.st68{fill:url(#path1390_1_);}
	.st69{clip-path:url(#SVGID_64_);}
	.st70{clip-path:url(#SVGID_66_);}
	.st71{fill:url(#path1420_1_);}
	.st72{fill:#F4F4F4;}
	.st73{fill-rule:evenodd;clip-rule:evenodd;fill:#F4F4F4;}
</style>
<g id="g5498" transform="matrix(1.178332,0,0,-1.178332,24.292481,966.1511)">
	<g id="g70" transform="translate(69.1677,753.046)">
		<path id="path72" class="st0" d="M13.5-21.2C7.7-11.5,2.3-2.4-1.1,6.3c-1.1,3.5-2,7-2.6,10.3c-2,9.5-1.1,15.1,2.5,22.8
			c0.1,0.2,0.2,0.3,0.2,0.5c1.7,1,4.1,1.9,6.8,2.2C12,42.7,22.3,41.2,26.3,30C30.4,18.3,21.5-4.6,13.5-21.2 M51.2,45
			c-0.4,0.8-1.9,3.5-2.4,4.5c-0.1,0.2-0.2,0.3-0.2,0.3c-6.4,11.8-6.7,9.6-10.7,10.3c-0.1,0-0.3,0.1-0.5,0.1
			c-4.6,1.1-12.4,4-16.3,5.4c-4,1.5-14.4-1.7-21.2-2.3c-1.7-0.2-3-0.5-4.1-0.9c-3.1-1.2-3.9-3.2-5.2-4.9c-0.7-1-1.3-1.3-2-1.4l0,0
			c-5.2-1.9-17.6-17.2-15-38.3c0.2-2.1,0.6-4.1,1.2-6.1C-19.8-8.5-2.7-35.6,1.5-43.4C-1.6-50.5-8.2-65.1-10.3-79
			c-0.1-0.5-0.6-3.6-0.6-6.3c-0.3-7,1-13.4,5.1-18l0.8-0.9c2.1-2.1,4.5-3.4,7-4.1c3.5-1.5,6.2-0.7,8.7-0.2c1.1-0.7,2.3-1.2,3.6-1.7
			c7.4-2.5,15.6-0.5,19.4,1.7c5.2,1.7,7.5,4.7,9,9.4c1.5,4.4,3.8,13.5-1.4,26.9c-2.3,5.8-7,14.8-14.1,28v0.1
			C32.9-33.4,48.3-6.4,51,1.5c0.1,0.4,0.3,0.8,0.4,1.2C56.1,14.6,59.1,30.4,51.2,45"/>
	</g>
	<g id="g74" transform="translate(67.2959,737.4174)">
		<path id="path76" class="st1" d="M11-42.1c-1.6,3.2-5.2,10.2-6,11.8C-3.5-46.7-5.6-65-5.7-70.3c0.1-4.1,0-10.3,5.8-12.9
			C7.8-72.8-5.7-57.2,11-42.1"/>
	</g>
	<g id="g78" transform="translate(75.5973,760.9155)">
		<path id="path80" class="st1" d="M22.1-10.7c2,9.8,6.9,18.2,0.6,31.8c-5.2,11.2-14,15.2-23.3,13.1l0,0c6.1,0.6,16.4-0.9,20.4-12.1
			C24,10.4,15.1-12.5,7.1-29.1c-0.2-0.4-0.4-0.8-0.6-1.2c3.9-6.7,7.1-12.5,10.8-19.4c0,0,5.1,8.2,7.2,12
			C20.3-27.6,20.9-16.8,22.1-10.7"/>
	</g>
	<g id="g82" transform="translate(85.9583,774.6167)">
		<path id="path84" class="st2" d="M36,7.6c0,0.3,0,0.7,0,1v0.1c0,0.1,0,0.3,0,0.4c-0.1,1.5-0.2,2.7-0.3,3.8c-0.1,1-0.3,1.8-0.5,2.4
			c-0.7,2.2-2.5,4.9-4.5,7.4c-4,5-8.9,9.6-9.1,9.7c-0.3-0.1-0.6-0.3-1-0.5c-4.2-2.5-4.1-6-18.8,1.1c-2.2,1.1-5.7,0.4-7.6,0.3
			C9,22.1,25.3,22.6,36,7.6"/>
	</g>
	<g id="g86" transform="translate(81.0794,756.8402)">
		<path id="path88" class="st3" d="M29.5-16.2c0.6,0.9,1.1,1.7,1.5,2.4c0.5,0.9,1.1,1.8,1.6,2.8c0.2,0.4,0.4,0.9,0.7,1.3
			c6,12.1,7.7,26.3,7.6,35.1c-7.6,22-29.6,12.2-36.7,25.9c-0.1,0-5.4-0.3-5.5-0.3c0.3-0.4,0.7-0.9,1.1-1.3
			c2.8-3.2,9.4-9.7,16.4-11.3c7.1-1.7,13-2.7,18.9-11.5c6-8.9-0.4-21.4-6-33.6c-2.2-4.9-2.4-9.8-2.8-14.7c0.9,1.3,1.1,2.7,2.2,4.2
			C28.9-17,29.2-16.6,29.5-16.2"/>
	</g>
	<g id="g90" transform="translate(83.4878,775.1901)">
		<path id="path92" class="st4" d="M32.7,8.3c-6,8.9-11.9,9.9-18.9,11.6C6.7,21.5,0.2,28-2.6,31.2c-0.4,0.4-0.7,0.9-1.1,1.3
			c-4.9-0.5-8.8-4.4-11.4-9.9c-0.9-1.9-1.7-4-2.3-6.3c1.9,1.7,5.2,3.3,8.9,3.6C0.8,22,9.7,18,14.8,6.8c6.3-13.6,1.3-22-0.6-31.8
			c-1.2-6.1-1.9-16.9,2.5-27c1.5,2.7,3.1,6.3,7.2,12c0.3,4.9,0.5,9.8,2.8,14.7C32.3-13,38.6-0.5,32.7,8.3"/>
	</g>
	<g id="g1983">
		<g id="g94">
			<g>
				<g>
					<defs>
						<path id="SVGID_1_" d="M80.1,807.8c-0.1,0-0.2,0-0.3,0l0,0c-4.9-0.5-8.8-4.4-11.4-10l0,0c-0.9-1.9-1.7-4-2.3-6.3l0,0
							c0.6,0.5,1.3,1,2.1,1.5l0,0c1.7,1,4.1,1.9,6.9,2.2l0,0c6.1,0.6,16.4-0.9,20.4-12.1l0,0c4.2-11.8-4.7-34.7-12.7-51.3l0,0
							c3.9-6.7,6.3-11,10.6-18.2l0,0c0,0,19,29,19.2,29.4l0,0c6,12.1,9.4,27,8.5,39l0,0c-1.4,19.1-13.4,24.8-13.5,25l0,0
							c-0.3-0.1-0.6-0.3-1-0.5l0,0c-4.2-2.5-4.3-6.6-19,0.5l0,0c-1.6,0.8-3.7,0.9-5.4,0.9l0,0C81.3,807.8,80.7,807.8,80.1,807.8"/>
					</defs>
					<clipPath id="SVGID_2_">
						<use xlink:href="#SVGID_1_"  style="overflow:visible;"/>
					</clipPath>
					<g id="g96" class="st5">
						<g id="g102">
							<g id="g104">
							</g>
							<g id="g138">
								<g id="g140">
									
										<linearGradient id="path148_1_" gradientUnits="userSpaceOnUse" x1="-233.8517" y1="890.7637" x2="-232.8517" y2="890.7637" gradientTransform="matrix(23.9058 58.1625 58.1625 -23.9058 -46148.5508 35616.2656)">
										<stop  offset="0" style="stop-color:#858380"/>
										<stop  offset="1" style="stop-color:#A19F9C"/>
									</linearGradient>
									<path id="path148" class="st6" d="M80.1,807.8c-0.1,0-0.2,0-0.3,0l0,0c-4.9-0.5-8.8-4.4-11.4-10l0,0
										c-0.9-1.9-1.7-4-2.3-6.3l0,0c0.6,0.5,1.3,1,2.1,1.5l0,0c1.7,1,4.1,1.9,6.9,2.2l0,0c6.1,0.6,16.4-0.9,20.4-12.1l0,0
										c4.2-11.8-4.7-34.7-12.7-51.3l0,0c3.9-6.7,6.3-11,10.6-18.2l0,0c0,0,19,29,19.2,29.4l0,0c6,12.1,9.4,27,8.5,39l0,0
										c-1.4,19.1-13.4,24.8-13.5,25l0,0c-0.3-0.1-0.6-0.3-1-0.5l0,0c-4.2-2.5-4.3-6.6-19,0.5l0,0c-1.6,0.8-3.7,0.9-5.4,0.9l0,0
										C81.3,807.8,80.7,807.8,80.1,807.8"/>
								</g>
							</g>
						</g>
					</g>
				</g>
			</g>
		</g>
		<g id="g150">
			<g>
				<g>
					<defs>
						<rect id="SVGID_3_" x="-36.2" y="605.4" width="547" height="249.7"/>
					</defs>
					<clipPath id="SVGID_4_">
						<use xlink:href="#SVGID_3_"  style="overflow:visible;"/>
					</clipPath>
					<g id="g152" class="st7">
						<g id="g158" transform="translate(65.4195,743.222)">
							<path id="path160" class="st8" d="M8.5-34.4C2-43.5-8.1-92.5,6.5-90.8C29.6-87.6,11.6-40.6,8.5-34.4"/>
						</g>
					</g>
				</g>
			</g>
		</g>
		<g id="g162">
			<g>
				<g>
					<defs>
						<path id="SVGID_5_" d="M80.1,807.8c-0.1,0-0.2,0-0.3,0l0,0c-4.9-0.5-8.8-4.4-11.4-10l0,0c-0.9-1.9-1.7-4-2.3-6.3l0,0
							c0.6,0.5,1.3,1,2.1,1.5l0,0c1.7,1,4.1,1.9,6.9,2.2l0,0c6.1,0.6,16.4-0.9,20.4-12.1l0,0c4.2-11.8-4.7-34.7-12.7-51.3l0,0
							c3.9-6.7,7.2-13.6,11-20.5l0,0c0,0,20.4,35.3,20.6,35.7l0,0c6,12.1,8.6,26.4,7.6,35.1l0,0c-1,8.9-2.7,12.1-4.9,15.4l0,0
							c-0.8,1.1-9.3,9.2-9.5,9.4l0,0c-0.3-0.1-0.6-0.3-1-0.5l0,0c-4.2-2.5-4.3-6.6-19,0.5l0,0c-1.6,0.8-3.7,0.9-5.4,0.9l0,0
							C81.3,807.8,80.7,807.8,80.1,807.8"/>
					</defs>
					<clipPath id="SVGID_6_">
						<use xlink:href="#SVGID_5_"  style="overflow:visible;"/>
					</clipPath>
					<g id="g164" class="st9">
						<g id="g170">
							<g id="g172">
							</g>
							<g id="g206">
								<g id="g208">
									
										<linearGradient id="path216_1_" gradientUnits="userSpaceOnUse" x1="-230.1197" y1="885.1499" x2="-229.1197" y2="885.1499" gradientTransform="matrix(32.3771 -85.5395 -85.5395 -32.3771 83245.1641 9794.5928)">
										<stop  offset="0" style="stop-color:#9D9B98"/>
										<stop  offset="1" style="stop-color:#797775"/>
									</linearGradient>
									<path id="path216" class="st10" d="M80.1,807.8c-0.1,0-0.2,0-0.3,0l0,0c-4.9-0.5-8.8-4.4-11.4-10l0,0
										c-0.9-1.9-1.7-4-2.3-6.3l0,0c0.6,0.5,1.3,1,2.1,1.5l0,0c1.7,1,4.1,1.9,6.9,2.2l0,0c6.1,0.6,16.4-0.9,20.4-12.1l0,0
										c4.2-11.8-4.7-34.7-12.7-51.3l0,0c3.9-6.7,7.2-13.6,11-20.5l0,0c0,0,20.4,35.3,20.6,35.7l0,0c6,12.1,8.6,26.4,7.6,35.1l0,0
										c-1,8.9-2.7,12.1-4.9,15.4l0,0c-0.8,1.1-9.3,9.2-9.5,9.4l0,0c-0.3-0.1-0.6-0.3-1-0.5l0,0c-4.2-2.5-4.3-6.6-19,0.5l0,0
										c-1.6,0.8-3.7,0.9-5.4,0.9l0,0C81.3,807.8,80.7,807.8,80.1,807.8"/>
								</g>
							</g>
						</g>
					</g>
				</g>
			</g>
		</g>
		<g id="g218">
			<g>
				<g>
					<defs>
						<rect id="SVGID_7_" x="-36.2" y="605.4" width="547" height="249.7"/>
					</defs>
					<clipPath id="SVGID_8_">
						<use xlink:href="#SVGID_7_"  style="overflow:visible;"/>
					</clipPath>
					<g id="g220" class="st11">
						<g id="g226">
							<g id="g228">
							</g>
							<g id="g296">
								<g>
									<g>
										<defs>
											<rect id="SVGID_9_" x="56.3" y="632" width="70.6" height="197.5"/>
										</defs>
										<clipPath id="SVGID_10_">
											<use xlink:href="#SVGID_9_"  style="overflow:visible;"/>
										</clipPath>
										<g id="g294" class="st12">
											<g id="g292">
												<g>
													<g>
														<defs>
															<path id="SVGID_11_" d="M89.3,801.8c-6.3-0.1-10.8-2.1-11-3.6l0,0c29.3-1,31.6-21.4,3-73.1l0,0
																c-10.8-19.6-15.2-37.6-15.2-49.8l0,0v-0.5c0-7.6,1.8-12.8,4.7-14.5l0,0c1-0.6,2-0.8,3.1-0.8l0,0h0.2
																c4.5,0.1,8.7,4.8,5.8,10.9l0,0c-3.7,7.5-0.6,23.1,8.8,40.1l0,0c9.3,17,42,63.8,21.9,82.8l0,0
																c-6.7,6.3-14.4,8.3-20.6,8.4l0,0L89.3,801.8L89.3,801.8z"/>
														</defs>
														<clipPath id="SVGID_12_">
															<use xlink:href="#SVGID_11_"  style="overflow:visible;"/>
														</clipPath>
														<g id="g290" class="st13">
															<g id="g288">
																<g id="g280">
																</g>
																<g id="g286">
																	<g id="g284">
																		
																			<linearGradient id="path282_1_" gradientUnits="userSpaceOnUse" x1="-232.4411" y1="885.24" x2="-231.4411" y2="885.24" gradientTransform="matrix(-94.553 -163.1913 -163.1913 94.553 122588.5156 -120862.5312)">
																			<stop  offset="0" style="stop-color:#797775"/>
																			<stop  offset="0.8425" style="stop-color:#F2EFEA"/>
																			<stop  offset="1" style="stop-color:#F2EFEA"/>
																		</linearGradient>
																		<path id="path282" class="st14" d="M89.3,801.8c-6.3-0.1-10.8-2.1-11-3.6l0,0c29.3-1,31.6-21.4,3-73.1l0,0
																			c-10.8-19.6-15.2-37.6-15.2-49.8l0,0v-0.5c0-7.6,1.8-12.8,4.7-14.5l0,0c1-0.6,2-0.8,3.1-0.8l0,0h0.2
																			c4.5,0.1,8.7,4.8,5.8,10.9l0,0c-3.7,7.5-0.6,23.1,8.8,40.1l0,0c9.3,17,42,63.8,21.9,82.8l0,0
																			c-6.7,6.3-14.4,8.3-20.6,8.4l0,0L89.3,801.8L89.3,801.8z"/>
																	</g>
																</g>
															</g>
														</g>
													</g>
												</g>
											</g>
										</g>
									</g>
								</g>
							</g>
						</g>
						<g id="g298">
							<g id="g300">
							</g>
							<g id="g320">
								<g>
									<g>
										<defs>
											<rect id="SVGID_13_" x="63" y="636.4" width="52.7" height="190.3"/>
										</defs>
										<clipPath id="SVGID_14_">
											<use xlink:href="#SVGID_13_"  style="overflow:visible;"/>
										</clipPath>
										<g id="g318" class="st15">
											<g id="g316">
												<g>
													<g>
														<defs>
															<rect id="SVGID_15_" x="63" y="636.4" width="52.7" height="190.3"/>
														</defs>
														<clipPath id="SVGID_16_">
															<use xlink:href="#SVGID_15_"  style="overflow:visible;"/>
														</clipPath>
														<g id="g314" class="st16">
															<g id="g312" transform="translate(66.1845,781.7522)">
																<path id="path310" class="st17" d="M9.6,17.1c1.6,0.5,3.4,0.8,5.1,1s3.5,0.2,5.2,0.1c3.5-0.2,6.9-1.1,10.1-2.8
																	c3.1-1.7,5.8-4.2,7.7-7.2c0.9-1.5,1.7-3.1,2.3-4.8s1.1-3.4,1.4-5.1c1.4-7,0.8-14.2-0.7-21.1s-3.7-13.6-6.4-20
																	c-2.6-6.5-5.7-12.7-8.8-18.9l-4.7-9.2L16.1-80c-3-6.1-5.9-12.3-7.9-18.8c-0.5-1.6-0.9-3.2-1.2-4.9
																	c-0.4-1.6-0.6-3.3-0.7-5c-0.2-3.3,0.2-6.7,1.5-9.9l-0.4-0.2c-1.9,2.9-2.9,6.5-3.1,10.1s0.2,7.2,0.9,10.6
																	c0.7,3.5,1.8,6.9,2.9,10.2c1.1,3.3,2.5,6.6,3.9,9.8c5.6,12.8,12.2,24.9,18.1,37.2c1.4,3.1,2.9,6.2,4.1,9.3
																	c1.3,3.1,2.5,6.3,3.4,9.6c1.9,6.5,3,13.3,2,20c-0.2,1.7-0.6,3.4-1.1,5s-1.2,3.1-2,4.6c-1.7,2.9-4.1,5.4-7,7.1
																	s-6.3,2.7-9.7,3.1c-1.7,0.2-3.4,0.2-5.1,0.1C13,17.8,11.2,17.5,9.6,17.1L9.6,17.1z"/>
															</g>
														</g>
													</g>
												</g>
											</g>
										</g>
									</g>
								</g>
							</g>
						</g>
						<g id="g322">
							<g id="g324-6">
							</g>
							<g id="g388">
								<g>
									<g>
										<defs>
											<rect id="SVGID_17_" x="53.3" y="639.9" width="37.6" height="81.7"/>
										</defs>
										<clipPath id="SVGID_18_">
											<use xlink:href="#SVGID_17_"  style="overflow:visible;"/>
										</clipPath>
										<g id="g386" class="st18">
											<g id="g384">
												<g>
													<g>
														<defs>
															<path id="SVGID_19_" d="M58.5,671c0-10.1,4.7-15.9,8.4-18.3l0,0c1.2-0.8,3.2-1.3,5.3-1.3l0,0h0.6
																c0.9,0,1.7,0.1,2.6,0.3l0,0c5.7,1.4,10.1,7.1,10.2,17.8l0,0v0.8c0,4.3-0.7,9.3-2.3,15.1l0,0
																c-0.5,2-4.6,10.8-5.4,12.3l0,0c-1.7,3.2-5.5,10.7-6.3,12.4l0,0C64.9,695.1,58.6,676.3,58.5,671"/>
														</defs>
														<clipPath id="SVGID_20_">
															<use xlink:href="#SVGID_19_"  style="overflow:visible;"/>
														</clipPath>
														<g id="g382" class="st19">
															<g id="g380">
																<g id="g372">
																</g>
																<g id="g378">
																	<g id="g376">
																		
																			<linearGradient id="path374_1_" gradientUnits="userSpaceOnUse" x1="-233.5425" y1="887.7674" x2="-232.5425" y2="887.7674" gradientTransform="matrix(0 188.8113 188.8113 0 -167548.4844 44754.5781)">
																			<stop  offset="0" style="stop-color:#9D9B98"/>
																			<stop  offset="1" style="stop-color:#F2EFEA"/>
																		</linearGradient>
																		<path id="path374" class="st20" d="M58.5,671c0-10.1,4.7-15.9,8.4-18.3l0,0c1.2-0.8,3.2-1.3,5.3-1.3l0,0h0.6
																			c0.9,0,1.7,0.1,2.6,0.3l0,0c5.7,1.4,10.1,7.1,10.2,17.8l0,0v0.8c0,4.3-0.7,9.3-2.3,15.1l0,0
																			c-0.5,2-4.6,10.8-5.4,12.3l0,0c-1.7,3.2-5.5,10.7-6.3,12.4l0,0C64.9,695.1,58.6,676.3,58.5,671"/>
																	</g>
																</g>
															</g>
														</g>
													</g>
												</g>
											</g>
										</g>
									</g>
								</g>
							</g>
						</g>
						<g id="g390-9">
							<g id="g392-9">
							</g>
							<g id="g456">
								<g>
									<g>
										<defs>
											<rect id="SVGID_21_" x="55.4" y="693.1" width="77.1" height="134.7"/>
										</defs>
										<clipPath id="SVGID_22_">
											<use xlink:href="#SVGID_21_"  style="overflow:visible;"/>
										</clipPath>
										<g id="g454" class="st21">
											<g id="g452">
												<g>
													<g>
														<defs>
															<path id="SVGID_23_" d="M68.4,797.8c-0.9-1.9-1.7-4-2.3-6.3l0,0c0.6,0.5,1.3,1,2.1,1.5l0,0c1.7,1,4.1,1.9,6.8,2.2
																l0,0c6.1,0.6,16.4-0.9,20.4-12.1l0,0c4.2-11.8-4.7-34.7-12.7-51.3l0,0c3.9-6.7,7.5-13,11.2-19.8l0,0
																c0,0,20.1,34.7,20.3,35.1l0,0c6,12.1,11.7,34.9,2.3,50.2l0,0c-3.3,5.4-8.1,9.5-8.3,9.6l0,0c-0.6-0.1-1.4-0.2-1.8-0.4
																l0,0c-4.2-2.5-2.8-4.6-17.7,1.8l0,0c-1.2,0.5-2.5,0.8-3.8,0.8l0,0C78.1,809,70.6,802.5,68.4,797.8"/>
														</defs>
														<clipPath id="SVGID_24_">
															<use xlink:href="#SVGID_23_"  style="overflow:visible;"/>
														</clipPath>
														<g id="g450" class="st22">
															<g id="g448">
																<g id="g440">
																</g>
																<g id="g446">
																	<g id="g444">
																		
																			<linearGradient id="path442_1_" gradientUnits="userSpaceOnUse" x1="-234.2289" y1="887.6221" x2="-233.2289" y2="887.6221" gradientTransform="matrix(-49.2432 136.9131 136.9131 49.2432 -132942.7344 -10927.4971)">
																			<stop  offset="0" style="stop-color:#9D9B98"/>
																			<stop  offset="1" style="stop-color:#F2EFEA"/>
																		</linearGradient>
																		<path id="path442" class="st23" d="M68.4,797.8c-0.9-1.9-1.7-4-2.3-6.3l0,0c0.6,0.5,1.3,1,2.1,1.5l0,0
																			c1.7,1,4.1,1.9,6.8,2.2l0,0c6.1,0.6,16.4-0.9,20.4-12.1l0,0c4.2-11.8-4.7-34.7-12.7-51.3l0,0
																			c3.9-6.7,7.5-13,11.2-19.8l0,0c0,0,20.1,34.7,20.3,35.1l0,0c6,12.1,11.7,34.9,2.3,50.2l0,0
																			c-3.3,5.4-8.1,9.5-8.3,9.6l0,0c-0.6-0.1-1.4-0.2-1.8-0.4l0,0c-4.2-2.5-2.8-4.6-17.7,1.8l0,0
																			c-1.2,0.5-2.5,0.8-3.8,0.8l0,0C78.1,809,70.6,802.5,68.4,797.8"/>
																	</g>
																</g>
															</g>
														</g>
													</g>
												</g>
											</g>
										</g>
									</g>
								</g>
							</g>
						</g>
						<g id="g458">
							<g id="g460">
							</g>
							<g id="g524">
								<g>
									<g>
										<defs>
											<rect id="SVGID_25_" x="48" y="620.9" width="86.1" height="217.4"/>
										</defs>
										<clipPath id="SVGID_26_">
											<use xlink:href="#SVGID_25_"  style="overflow:visible;"/>
										</clipPath>
										<g id="g522" class="st24">
											<g id="g520">
												<g>
													<g>
														<defs>
															<path id="SVGID_27_" d="M85,808c-4.9,0-10.3-4-12.4-6.3l0,0c-2.4-2.7-6-7.9-6.6-10.2l0,0c1.9,1.7,5.2,3.3,8.9,3.6
																l0,0c6.1,0.6,16.4-0.9,20.4-12.1l0,0c4.2-11.8-4.7-34.7-12.7-51.3l0,0c-0.2-0.4-0.4-0.8-0.6-1.2l0,0
																c-0.8-1.4-10.2-19.5-10.6-20.5l0,0c-5.8-16.8-11.5-34-11.6-39.3l0,0c0-9.1,3.2-19.3,12.3-19.5l0,0h0.4
																c0.8,0,1.7,0.1,2.7,0.3l0,0c8.6,1.8,10.8,15.8,9.5,23.1l0,0c0,0-2.8,11.8-2.9,12l0,0c0,0,17.1,34.3,18.3,36.5l0,0
																c1.5,2.7,13.9,23.4,14.1,23.8l0,0c6,12.1,8.2,26.3,7.6,35.1l0,0c-0.2,3.1-3.3,12.5-5.3,15l0,0c-4,5-9.7,9.4-10,9.2
																l0,0c-4.2-2.5-3.6-4.6-18.8,1.1l0,0c-0.8,0.3-1.7,0.4-2.6,0.5l0,0L85,808z"/>
														</defs>
														<clipPath id="SVGID_28_">
															<use xlink:href="#SVGID_27_"  style="overflow:visible;"/>
														</clipPath>
														<g id="g518" class="st25">
															<g id="g516">
																<g id="g508">
																</g>
																<g id="g514">
																	<g id="g512">
																		
																			<linearGradient id="path510_1_" gradientUnits="userSpaceOnUse" x1="-233.6898" y1="887.2898" x2="-232.6898" y2="887.2898" gradientTransform="matrix(-74.832 208.0589 208.0589 74.832 -201979.8906 -17122.2793)">
																			<stop  offset="0" style="stop-color:#44433E"/>
																			<stop  offset="1" style="stop-color:#F2EFEA"/>
																		</linearGradient>
																		<path id="path510" class="st26" d="M85,808c-4.9,0-10.3-4-12.4-6.3l0,0c-2.4-2.7-6-7.9-6.6-10.2l0,0
																			c1.9,1.7,5.2,3.3,8.9,3.6l0,0c6.1,0.6,16.4-0.9,20.4-12.1l0,0c4.2-11.8-4.7-34.7-12.7-51.3l0,0
																			c-0.2-0.4-0.4-0.8-0.6-1.2l0,0c-0.8-1.4-10.2-19.5-10.6-20.5l0,0c-5.8-16.8-11.5-34-11.6-39.3l0,0
																			c0-9.1,3.2-19.3,12.3-19.5l0,0h0.4c0.8,0,1.7,0.1,2.7,0.3l0,0c8.6,1.8,10.8,15.8,9.5,23.1l0,0
																			c0,0-2.8,11.8-2.9,12l0,0c0,0,17.1,34.3,18.3,36.5l0,0c1.5,2.7,13.9,23.4,14.1,23.8l0,0c6,12.1,8.2,26.3,7.6,35.1
																			l0,0c-0.2,3.1-3.3,12.5-5.3,15l0,0c-4,5-9.7,9.4-10,9.2l0,0c-4.2-2.5-3.6-4.6-18.8,1.1l0,0
																			c-0.8,0.3-1.7,0.4-2.6,0.5l0,0L85,808z"/>
																	</g>
																</g>
															</g>
														</g>
													</g>
												</g>
											</g>
										</g>
									</g>
								</g>
							</g>
						</g>
					</g>
				</g>
			</g>
		</g>
		<g id="g526">
			<g>
				<g>
					<defs>
						<path id="SVGID_29_" d="M74.9,796.8c-0.8-0.1-3.6-0.6-5.2-1.2l0,0l-0.9-1.4l-0.5-1.2c1.7,1,4.1,1.9,6.9,2.2l0,0
							c6.1,0.6,16.4-0.9,20.4-12.1l0,0c4.2-11.8-4.7-34.7-12.7-51.3l0,0c-0.2-0.4-0.4-0.7-0.5-1.1l0,0c1.3-1.1,2.3-1.9,2.3-1.9l0,0
							c0.2,0.4,0.4,0.7,0.6,1.1l0,0c8.2,17.1,16.3,41.4,11.9,53.7l0,0c-1.7,4.8-4.6,8.3-8.7,10.6l0,0c-0.3,0.1-1.8,0.9-2.3,1.1l0,0
							c-0.3,0.1-0.5,0.2-0.8,0.3l0,0c-0.5,0.2-2.1,0.6-2.4,0.7l0,0c-1,0.2-2,0.4-3.1,0.5l0,0c-0.8,0.1-1.6,0.1-2.4,0.1l0,0
							C76.5,796.9,75.7,796.9,74.9,796.8"/>
					</defs>
					<clipPath id="SVGID_30_">
						<use xlink:href="#SVGID_29_"  style="overflow:visible;"/>
					</clipPath>
					<g id="g528" class="st27">
						<g id="g534">
							<g id="g536">
							</g>
							<g id="g568">
								<g id="g570">
									
										<linearGradient id="path578_1_" gradientUnits="userSpaceOnUse" x1="-230.8434" y1="884.3844" x2="-229.8434" y2="884.3844" gradientTransform="matrix(0 -92.8777 -92.8777 0 82222.9219 -20641.9316)">
										<stop  offset="0" style="stop-color:#F2EFEA"/>
										<stop  offset="1" style="stop-color:#F2EFEA"/>
									</linearGradient>
									<path id="path578" class="st28" d="M74.9,796.8c-0.8-0.1-3.6-0.6-5.2-1.2l0,0l-0.9-1.4l-0.5-1.2c1.7,1,4.1,1.9,6.9,2.2l0,0
										c6.1,0.6,16.4-0.9,20.4-12.1l0,0c4.2-11.8-4.7-34.7-12.7-51.3l0,0c-0.2-0.4-0.4-0.7-0.5-1.1l0,0c1.3-1.1,2.3-1.9,2.3-1.9
										l0,0c0.2,0.4,0.4,0.7,0.6,1.1l0,0c8.2,17.1,16.3,41.4,11.9,53.7l0,0c-1.7,4.8-4.6,8.3-8.7,10.6l0,0
										c-0.3,0.1-1.8,0.9-2.3,1.1l0,0c-0.3,0.1-0.5,0.2-0.8,0.3l0,0c-0.5,0.2-2.1,0.6-2.4,0.7l0,0c-1,0.2-2,0.4-3.1,0.5l0,0
										c-0.8,0.1-1.6,0.1-2.4,0.1l0,0C76.5,796.9,75.7,796.9,74.9,796.8"/>
								</g>
							</g>
						</g>
					</g>
				</g>
			</g>
		</g>
		<g id="g580">
			<g>
				<g>
					<defs>
						<rect id="SVGID_31_" x="-36.2" y="605.4" width="547" height="249.7"/>
					</defs>
					<clipPath id="SVGID_32_">
						<use xlink:href="#SVGID_31_"  style="overflow:visible;"/>
					</clipPath>
					<g id="g582" class="st29">
						<g id="g588" transform="translate(73.7247,745.2662)">
							<path id="path590" class="st30" d="M19.6-31.6c-0.6,1.1-1,1.7-1,1.7c-0.2,0.4-0.5,0.8-0.7,1.2C9.1-12.9-0.5,1-5.7,14.1
								c-1.1,3.5-2,7-2.6,10.3c-2,9.5-1.1,15.1,2.5,22.8c3.5,7.4,14.1,16.7,20,13.8c12.8-6.1,14.5-3.2,17.5-0.7
								c0.1,0.1,0.3,0.2,0.4,0.3c0.1,0.1,0.5,0.3,0.5,0.4C66.2,35.4,30.3-14.3,19.6-31.6 M-0.8-91.9C-1.7-92-2.5-92-3.3-92
								c-1.3,0.2-2.7,0.7-3.9,1.6c-1.8,1.2-3.1,3.1-3.8,5.1c-2.1,6.2-1.6,18.6,9.5,46.6c1.2-2.5,2.2-4.9,2.7-5.9
								c6.4-13,8-24.9,8-32.1C8.4-85.5,4.1-91-0.8-91.9 M46.6,52.8c-0.4,0.8-1.9,3.5-2.4,4.5c-0.1,0.2-0.2,0.3-0.2,0.3
								c-6.4,11.8-6.7,9.6-10.7,10.3c-0.1,0-0.3,0.1-0.4,0.1c-4.6,1.1-12.4,4-16.3,5.4c-4,1.5-14.4-1.7-21.1-2.3
								c-1.7-0.2-3-0.5-4.1-0.9c-3.1-1.2-3.9-3.2-5.2-4.9c-0.7-1-1.3-1.3-2-1.4l0,0c-5.2-1.9-17.6-17.2-15-38.3
								c0.2-2.1,0.6-4.1,1.2-6.1C-24.4-0.7-7.3-27.9-3.1-35.6c-3.1-7.1-9.7-21.8-11.8-35.6c-0.1-0.5-0.6-3.6-0.6-6.3l0,0
								c-0.3-7,1-13.4,5.1-18.1l0.8-0.9c2.1-2,4.5-3.4,7-4.1c3.5-1.5,6.2-0.7,8.7-0.2c1.2-0.7,2.4-1.2,3.6-1.7
								c7.4-2.5,15.6-0.5,19.4,1.7c5.2,1.7,7.5,4.7,9,9.4c1.5,4.4,3.8,13.5-1.4,26.9c-2.3,5.8-7,14.8-14.2,28v0.1
								c5.8,10.8,21.2,37.8,24,45.6c0.1,0.4,0.3,0.8,0.4,1.2C51.5,22.4,54.6,38.1,46.6,52.8"/>
						</g>
						<g id="g592" transform="translate(79.3362,754.148)">
							<path id="path594" class="st31" d="M27.1-19.8c-0.5-0.8-1.7-2.6-3.3-4.9c-3.8-6.5-7.5-12-9.9-15.8c0.8-1.3,2.5-4.1,3.3-5.4
								c-0.1,0.2-0.2,0.3-0.3,0.5v0.1c0.4,0.7,0.8,1.5,1.2,2.3C18.2-38.7,25.6-23.2,27.1-19.8"/>
						</g>
						<g id="g596" transform="translate(72.4271,789.0046)">
							<path id="path598" class="st4" d="M17.9,26.8c-2.8,1.5-6.4,1.4-9.9,0.8c-1-0.2-3.6-0.7-3.6-0.7s5.1-1.2,9.1-2.7
								c2.6-1,7-2.7,12.2,0.1l0.1,0.2C23.5,24.8,20.6,25.4,17.9,26.8"/>
						</g>
					</g>
				</g>
			</g>
		</g>
		<g id="g600">
			<g id="g602">
				<g id="g608">
					<g id="g610">
						
							<linearGradient id="path618-8_1_" gradientUnits="userSpaceOnUse" x1="-230.2962" y1="893.7103" x2="-229.2962" y2="893.7103" gradientTransform="matrix(30.3769 19.6781 19.6781 -30.3769 -10528.5859 32481.3418)">
							<stop  offset="0" style="stop-color:#FAF6F2"/>
							<stop  offset="1" style="stop-color:#FFFBF7"/>
						</linearGradient>
						<path id="path618-8" class="st32" d="M73.8,814.6c-1.2-0.5-2.2-0.9-2.9-1.3l0,0c-9.5-5.3-12.2-10.5-12.7-10.9l0,0
							c-0.3-1.8-0.7-3.2-0.9-5.5l0,0c1.8-0.9,10.3,0.8,16,5.2l0,0c0.7,0.6,1.4,1.2,2.2,1.7l0,0c0.3,0.2,0.6,0.4,0.8,0.5l0,0l0.1,0.1
							l0,0c3.2,2.9,7.1,10,10.6,8.2l0,0c0.3-0.1,0.6-0.3,0.8-0.4l0,0c-0.4,0.2-0.8,0.5-1.3,0.7l0,0c-2.6,1.4-5.3,2.4-8.2,2.4l0,0
							C77,815.5,75.5,815.2,73.8,814.6"/>
					</g>
				</g>
			</g>
		</g>
		<g id="g620-5">
			<g>
				<g>
					<defs>
						<rect id="SVGID_33_" x="-36.2" y="605.4" width="547" height="249.7"/>
					</defs>
					<clipPath id="SVGID_34_">
						<use xlink:href="#SVGID_33_"  style="overflow:visible;"/>
					</clipPath>
					<g id="g622-3" class="st33">
						<g id="g628-8" transform="translate(59.3509,785.9698)">
							<path id="path630" class="st34" d="M0.4,22.7c-0.4-1.1-0.8-2.1-1-3.4c-0.2-0.9-0.3-1.9-0.5-2.9c6,7.4,12,10.6,12.7,10.9
								s2.6,1.7,3.5,1.9c-6.5-1.8-10.1-4.4-14-5.6C0.9,23.6,0.5,23,0.4,22.7"/>
						</g>
						<g id="g632" transform="translate(72.9843,784.8661)">
							<path id="path634" class="st35" d="M18.6,21.3c-9.9,5.6-15.1-1.5-15.1-1.5l-0.1-0.1C0,16.5-3.6,12.1-5,7.6
								C-1.5,15,9,24.3,15,21.4c14-6.7,14.7-2.5,18.5,0C30.7,19.8,28.4,15.8,18.6,21.3"/>
						</g>
						<g id="g636" transform="translate(78.9037,784.7429)">
							<path id="path638" class="st36" d="M26.6,21.1c-6.6-2.7-11,2.6-17.6,6.5c-0.3,0.1-0.6,0.2-0.8,0.4
								c-4.6,2.3-12.3-9.8-12.3-9.8c1.5,1.1,6.9,8.8,16.8,3.2c9.7-5.5,11.2-2.4,13.8-0.5c0.1,0.1,1,0.7,1,0.7S26.7,21.2,26.6,21.1
								L26.6,21.1"/>
						</g>
						<g id="g640" transform="translate(65.1609,783.1691)">
							<path id="path642" class="st30" d="M8.2,19c-5.7-4.3-14.2-6.1-16-5.2c-0.8-8.5-2.6-19.5-0.7-32c0.8-5.4,1.9-11.2,2.8-17
								C-8-16.9-8.5,5.1,8.2,19"/>
						</g>
						<g id="g644" transform="translate(61.6367,788.8613)">
							<path id="path646" class="st30" d="M3.5,26.6c-3.1-1.2-3.9-3.2-5.2-4.9c-0.8-1-1.3-1.3-2-1.4c0.5,0.1,1,0.2,1.7,0.4
								c1.7,0.4,3.2,1.1,4.9,1.8c1.6,0.7,3.4,1.5,5.7,2.4c1.3,0.5,4,1.5,5.4,1.9s5.2,1,5.4,1.1c0,0,1.4,0.2,1.9,0.3
								C21.1,28.1,5.5,27.2,3.5,26.6"/>
						</g>
					</g>
				</g>
			</g>
		</g>
		<g id="g648">
			<g>
				<g>
					<defs>
						<path id="SVGID_35_" d="M82.5,816.9c-0.3,0-15.4-0.9-17.4-1.5l0,0c-3.1-1.2-3.9-3.2-5.2-4.9l0,0c-0.8-1-1.3-1.3-2-1.4l0,0
							c0.5,0.1,1,0.2,1.7,0.4l0,0c1.7,0.4,3.2,1.1,4.9,1.8l0,0c1.6,0.7,3.4,1.5,5.7,2.4l0,0c1.3,0.5,4,1.5,5.4,1.9l0,0
							c1.4,0.4,5,1,5.4,1.1l0,0c0.5,0.1,1.4,0.2,1.9,0.3l0,0C82.8,816.9,82.6,816.9,82.5,816.9"/>
					</defs>
					<clipPath id="SVGID_36_">
						<use xlink:href="#SVGID_35_"  style="overflow:visible;"/>
					</clipPath>
					<g id="g650" class="st37">
						<g id="g656">
							<g id="g658">
							</g>
							<g id="g692-2">
								<g id="g694-3">
									
										<linearGradient id="path702_1_" gradientUnits="userSpaceOnUse" x1="-226.5626" y1="891.5143" x2="-225.5626" y2="891.5143" gradientTransform="matrix(34.5599 0 0 -34.5599 7887.9941 31623.6836)">
										<stop  offset="0" style="stop-color:#B0AEAB"/>
										<stop  offset="1" style="stop-color:#FAF6F2"/>
									</linearGradient>
									<path id="path702" class="st38" d="M82.5,816.9c-0.3,0-15.4-0.9-17.4-1.5l0,0c-3.1-1.2-3.9-3.2-5.2-4.9l0,0
										c-0.8-1-1.3-1.3-2-1.4l0,0c0.5,0.1,1,0.2,1.7,0.4l0,0c1.7,0.4,3.2,1.1,4.9,1.8l0,0c1.6,0.7,3.4,1.5,5.7,2.4l0,0
										c1.3,0.5,4,1.5,5.4,1.9l0,0c1.4,0.4,5,1,5.4,1.1l0,0c0.5,0.1,1.4,0.2,1.9,0.3l0,0C82.8,816.9,82.6,816.9,82.5,816.9"/>
								</g>
							</g>
						</g>
					</g>
				</g>
			</g>
		</g>
		<g id="g704">
			<g>
				<g>
					<defs>
						<rect id="SVGID_37_" x="-36.2" y="605.4" width="547" height="249.7"/>
					</defs>
					<clipPath id="SVGID_38_">
						<use xlink:href="#SVGID_37_"  style="overflow:visible;"/>
					</clipPath>
					<g id="g706" class="st39">
						<g id="g712" transform="translate(78.7406,717.3035)">
							<path id="path714-8" class="st40" d="M26.3-69c-0.2-0.3-0.3-0.6-0.4-0.9c-0.5-1.1-1.1-2.1-1.8-2.9c5.2,1.7,7.5,4.7,9,9.4
								C27.6-69.2,26.3-69,26.3-69"/>
						</g>
						<g id="g716" transform="translate(73.5677,716.6246)">
							<path id="path718" class="st41" d="M19.4-69.9c-4.1,1.8-7.5-1.7-9.6-3.9c7.4-2.5,15.6-0.5,19.4,1.7c0.6,0.9,1.2,1.9,1.8,2.9
								C28.9-72.8,23.4-71.7,19.4-69.9"/>
						</g>
						<g id="g720" transform="translate(68.1187,719.2645)">
							<path id="path722" class="st35" d="M12.1-66.4c2.1,4.1,3.2,11.6,2.6,15.8C14-59.5,9.7-65,4.8-65.9C4-66,3.1-66,2.3-66
								c-1.3,0.2-2.7,0.7-4,1.6c-0.2,0.1-0.4,0.3-0.6,0.5C-6-62.8-9-59.7-9.8-55.8v0.1c0-0.6,0.1-1.2,0.2-1.9v-0.1
								c0.2-1.9,0.6-3.6,1.2-5.3C-4.4-70.4,7.4-75.8,12.1-66.4"/>
						</g>
						<g id="g724" transform="translate(64.9878,719.4724)">
							<path id="path726" class="st42" d="M8-66.1c-0.9-0.1-1.7-0.2-2.5-0.1c-1.3,0.2-2.7,0.7-3.9,1.6c-1,0.7-1.8,1.5-2.5,2.5
								c-3.4,3.5-5.2,9.7-5.5,13.9v0.2l0,0l0,0l0,0c-0.1-1.1-0.2-2.4-0.3-3.6l0,0c-0.1-2.5,0-5,0.4-7.4v-0.1
								c3.7-7.1,14-14.1,20.9-2.2C12.7-64,10.4-65.6,8-66.1"/>
						</g>
						<g id="g728" transform="translate(84.1774,783.4677)">
							<path id="path730" class="st43" d="M33.6,19.4C27.2,31.2,27,29,22.9,29.7c-5.4-0.3-11.5-4.1-19.2-0.8
								c10.7-6.4,19.8,7.4,30-9.8c0,0,0.1-0.2,0.1-0.3c0,0.1-0.1,0.1-0.1,0.2C33.7,19.3,33.6,19.4,33.6,19.4"/>
						</g>
					</g>
				</g>
			</g>
		</g>
		<g id="g732">
			<g>
				<g>
					<defs>
						<path id="SVGID_39_" d="M106.4,806.3c0.1,0,0.1,0.1,0.2,0.1l0,0c2.4,1.6,7.1,2.4,11.3-3.9l0,0l0,0
							c-6.2,10.4-11.9,9.5-17.9,8.5l0,0c-3.9-0.6-7.9-1.3-12.1,1.3l0,0C93.9,808.5,100.7,802.8,106.4,806.3"/>
					</defs>
					<clipPath id="SVGID_40_">
						<use xlink:href="#SVGID_39_"  style="overflow:visible;"/>
					</clipPath>
					<g id="g734" class="st44">
						<g id="g740">
							<g id="g742">
							</g>
							<g id="g780">
								<g id="g782">
									
										<linearGradient id="path792_1_" gradientUnits="userSpaceOnUse" x1="-237.5793" y1="885.7714" x2="-236.5793" y2="885.7714" gradientTransform="matrix(-47.3005 25.663 25.663 47.3005 -33847.3125 -35001.7422)">
										<stop  offset="0" style="stop-color:#FFFBF7"/>
										<stop  offset="0.527" style="stop-color:#FFFBF7"/>
										<stop  offset="1" style="stop-color:#B4B2AF"/>
									</linearGradient>
									<path id="path792" class="st45" d="M106.4,806.3c0.1,0,0.1,0.1,0.2,0.1l0,0c2.4,1.6,7.1,2.4,11.3-3.9l0,0l0,0
										c-6.2,10.4-11.9,9.5-17.9,8.5l0,0c-3.9-0.6-7.9-1.3-12.1,1.3l0,0C93.9,808.5,100.7,802.8,106.4,806.3"/>
								</g>
							</g>
						</g>
					</g>
				</g>
			</g>
		</g>
		<g id="g794">
			<g>
				<g>
					<defs>
						<rect id="SVGID_41_" x="-36.2" y="605.4" width="547" height="249.7"/>
					</defs>
					<clipPath id="SVGID_42_">
						<use xlink:href="#SVGID_41_"  style="overflow:visible;"/>
					</clipPath>
					<g id="g796" class="st46">
						<g id="g802" transform="translate(64.2158,715.7581)">
							<path id="path804" class="st3" d="M6.9-71.1c2.7,1.7,5,4.1,6.8,6.8c-5.1-4.7-16.2-3.2-19.4,9C-5-59.4-3.5-63.1-0.9-66
								l0.8-0.9C2-69,4.5-70.3,6.9-71.1"/>
						</g>
						<g id="g806" transform="translate(72.4487,790.2429)">
							<path id="path808-5" class="st42" d="M17.9,28.5c-4,1.5-14.4-1.7-21.2-2.3c-1.7-0.2-3-0.5-4.1-0.9c4,0.9,4.3,0,15.9,1.3
								c0.1,0,1.5,0.2,1.9,0.2c2.6,0.2,5.2,0,7.3-1.2c2.7-1.4,5.2-2,7.6-2.3c3-0.3,5.9-0.1,8.7-0.2C29.6,24.1,21.8,27,17.9,28.5"/>
						</g>
					</g>
				</g>
			</g>
		</g>
		<g id="g810-3">
			<g>
				<g>
					<defs>
						<path id="SVGID_43_" d="M87.3,819.1c-4.9-0.1-12.7-2.2-18.1-2.7l0,0c-1.7-0.2-3-0.5-4.1-0.9l0,0c4,0.8,4.4,0,15.9,1.3l0,0
							c0.1,0,1.5,0.2,1.9,0.2l0,0c2.6,0.2,5.2,0,7.4-1.2l0,0c2.7-1.4,5.2-2,7.6-2.3l0,0c1.8-0.2,3.6-0.2,5.3-0.2l0,0
							c1.1,0,2.3,0,3.4-0.1l0,0c-4.6,1.1-12.4,4-16.3,5.4l0,0c-0.7,0.2-1.5,0.4-2.6,0.4l0,0L87.3,819.1L87.3,819.1z"/>
					</defs>
					<clipPath id="SVGID_44_">
						<use xlink:href="#SVGID_43_"  style="overflow:visible;"/>
					</clipPath>
					<g id="g812-9" class="st47">
						<g id="g818-2">
							<g id="g820-1">
							</g>
							<g id="g854">
								<g id="g856">
									
										<linearGradient id="path864_1_" gradientUnits="userSpaceOnUse" x1="-229.0034" y1="889.5668" x2="-228.0034" y2="889.5668" gradientTransform="matrix(57.6666 0 0 -57.6666 13270.9521 52114.4688)">
										<stop  offset="0" style="stop-color:#CCC9C6"/>
										<stop  offset="1" style="stop-color:#FAF6F2"/>
									</linearGradient>
									<path id="path864" class="st48" d="M87.3,819.1c-4.9-0.1-12.7-2.2-18.1-2.7l0,0c-1.7-0.2-3-0.5-4.1-0.9l0,0
										c4,0.8,4.4,0,15.9,1.3l0,0c0.1,0,1.5,0.2,1.9,0.2l0,0c2.6,0.2,5.2,0,7.4-1.2l0,0c2.7-1.4,5.2-2,7.6-2.3l0,0
										c1.8-0.2,3.6-0.2,5.3-0.2l0,0c1.1,0,2.3,0,3.4-0.1l0,0c-4.6,1.1-12.4,4-16.3,5.4l0,0c-0.7,0.2-1.5,0.4-2.6,0.4l0,0
										L87.3,819.1L87.3,819.1z"/>
								</g>
							</g>
						</g>
					</g>
				</g>
			</g>
		</g>
		<g id="g866">
			<g>
				<g>
					<defs>
						<rect id="SVGID_45_" x="-36.2" y="605.4" width="547" height="249.7"/>
					</defs>
					<clipPath id="SVGID_46_">
						<use xlink:href="#SVGID_45_"  style="overflow:visible;"/>
					</clipPath>
					<g id="g868" class="st49">
						<g id="g874" transform="translate(75.6997,788.0179)">
							<path id="path876" class="st35" d="M22.3,25.5L22,25.3C17.6,23,13.6,24,11,25c0.4-0.2,0.9-0.5,1.3-0.7
								c7.6-3.3,13.7,0.5,19.2,0.8c-0.1,0-0.3,0.1-0.4,0.1C28.2,25.4,25.3,25.2,22.3,25.5"/>
						</g>
						<g id="g878" transform="translate(79.3362,730.9539)">
							<path id="path880" class="st36" d="M27.1-50.8C22.2-28.9,11.4-14.7,2-3.1c-8,9.9-12.4,20.5-14.4,30.2
								c0.2-2.2,0.4-4.5,0.5-6.9C-10.1,6.8-5.1-9.1,9.6-27.1C22.9-43.4,25.7-45.7,27.1-50.8"/>
						</g>
						<g id="g882" transform="translate(84.3566,783.1344)">
							<path id="path884" class="st35" d="M33.8,19l0.2-0.4c0-0.1,0.9-2.2,1-2.3c2.5-5.8-0.1-10.6-0.6-11.4
								c3.6-12.7-0.2-27.1-6-40.3C25.9-41.1,26-46.3,25.2-50c0,0,0,0,0,0.1C30-41,34.4-32.5,35.8-28.6c0.1,0.4,0.3,0.8,0.4,1.2
								c4.7,11.9,7.7,27.7-0.3,42.4C35.6,15.6,34.5,17.8,33.8,19"/>
						</g>
						<g id="g886" transform="translate(79.3224,784.9538)">
							<path id="path888" class="st41" d="M27.1,21.4c3.5-2.7,6-5.9,8.1-9.1c-0.7,5-2,10-6.2,9.6c-0.5-0.1-1-0.2-1.5-0.4
								C27.4,21.5,27.4,21.6,27.1,21.4"/>
						</g>
						<g id="g890" transform="translate(84.8792,782.0592)">
							<path id="path892" class="st3" d="M34.5,17.5c0,0.1-2.5,3.7-3.9,5.1c-1.5,1.7-3.8,2.7-5.8,2.6c-1.8,0-2.5-0.5-3.1-0.8
								c-0.1,0-0.2-0.1-0.2-0.2c6,1.7,7.2-4.1,8.1-9.1c1.9-2.9,3.3-6,4.2-9.2C34.2,6.6,36.8,11.8,34.5,17.5"/>
						</g>
						<g id="g894" transform="translate(69.4786,714.9547)">
							<path id="path896-0" class="st40" d="M14-72.1c2.6,2.1,4.8,4.5,7.5,4.4c-2,0.1-9.4-1.5-11.1-2.7C11.5-71.2,12.7-71.7,14-72.1
								"/>
						</g>
						<g id="g898-5" transform="translate(80.316,724.6166)">
							<path id="path900" class="st30" d="M28.4-59.2c-0.1,2-0.3,4.1-0.7,6c-0.7,3.9-2.1,7.5-4.2,10.5c-7.7,10.9-26.2,31-31,46.6
								c1.4-9.8-1-21.6,2.9-27.4c1.3-1.7,2.6-3.4,3.9-5.1c9.4-11.2,20.4-17.8,20-33.7c-0.2-8.5-3-11.5-7.2-15.4
								c0.2-0.1,0.3-0.1,0.5-0.2c4-1.7,9.5-2.9,11.6,0.7C27.1-71.7,28.7-66.6,28.4-59.2"/>
						</g>
						<g id="g902-7" transform="translate(76.7378,722.7048)">
							<path id="path904" class="st43" d="M23.7-61.8C26.2-41.3,14.3-30.3,3-17.3c-1.3,1.5-5.1,3.1-3.6-0.3
								C5.8-27.6,10-37.3,11-41.4c5.9-23.9-0.6-31.4-7.9-36.8c1.7,1.2,9.1,2.8,11.1,2.7c0.5,0,1-0.1,1.5-0.3
								c3.4,3.2,5.7,4.8,7.1,9.9c0.2,0.7,0.4,1.5,0.5,2.3C23.5-63,23.6-62.4,23.7-61.8"/>
						</g>
						<g id="g906-5" transform="translate(73.0121,729.1237)">
							<path id="path908" class="st42" d="M18.7-53.2C15.9-42.2,9.4-25-2.2-9.9c-0.2-0.5-1.2-3.8-2-6.2c0.8-1.3,1.4-2.5,1.9-3.3
								c0.6-1.2,1-2,1.5-3.1c1.2-2.5,2.2-4.9,2.7-5.9c6.4-13,8-24.9,8-32.1c0.5-8.9-4-19.2-11.7-24c3.5-1.5,6.2-0.7,8.7-0.2
								C13.1-82.4,24.6-77.1,18.7-53.2"/>
						</g>
					</g>
				</g>
			</g>
		</g>
		<g id="g910">
			<g>
				<g>
					<defs>
						<path id="SVGID_47_" d="M52.6,802.5c-7.8-10.6-9.7-27.9-6.6-37l0,0c4-11.7,5.7-17.5,15.5-33.1l0,0c0.9-1.4-5.1,22.5-6.4,28.3
							l0,0c-1.2,5.3-4.8,27.1,2.8,44.2l0,0c0.7,1.6,1.5,3.3,2.4,4.8l0,0C57.3,808.1,54.7,805.4,52.6,802.5"/>
					</defs>
					<clipPath id="SVGID_48_">
						<use xlink:href="#SVGID_47_"  style="overflow:visible;"/>
					</clipPath>
					<g id="g912" class="st50">
						<g id="g918">
							<g id="g920">
							</g>
							<g id="g954">
								<g id="g956">
									
										<linearGradient id="path964_1_" gradientUnits="userSpaceOnUse" x1="-231.2006" y1="884.6017" x2="-230.2006" y2="884.6017" gradientTransform="matrix(-6.1736 -107.0089 -107.0089 6.1736 93289.2109 -29391.8066)">
										<stop  offset="0" style="stop-color:#FFFBF7"/>
										<stop  offset="1" style="stop-color:#FFFBF7"/>
									</linearGradient>
									<path id="path964" class="st51" d="M52.6,802.5c-7.8-10.6-9.7-27.9-6.6-37l0,0c4-11.7,5.7-17.5,15.5-33.1l0,0
										c0.9-1.4-5.1,22.5-6.4,28.3l0,0c-1.2,5.3-4.8,27.1,2.8,44.2l0,0c0.7,1.6,1.5,3.3,2.4,4.8l0,0
										C57.3,808.1,54.7,805.4,52.6,802.5"/>
								</g>
							</g>
						</g>
					</g>
				</g>
			</g>
		</g>
		<g id="g966">
			<g>
				<g>
					<defs>
						<rect id="SVGID_49_" x="-36.2" y="605.4" width="547" height="249.7"/>
					</defs>
					<clipPath id="SVGID_50_">
						<use xlink:href="#SVGID_49_"  style="overflow:visible;"/>
					</clipPath>
					<g id="g968" class="st52">
						<g id="g974-8" transform="translate(66.7603,785.5481)">
							<path id="path976" class="st3" d="M10.3,22.2c-3.6-1.7-6.6-4.3-9.2-7.2s-4.6-6.3-6-9.9C-7.7-2.1-8-10-6.7-17.7
								c1.2-7.7,3.9-15.1,5.5-23c0.8-3.9,1.3-7.9,1.1-11.9c-0.1-4-0.8-8-2.1-11.7c0.8,3.9,1.2,7.8,1,11.7C-1.3-48.7-2-44.8-2.9-41
								c-0.9,3.8-2.1,7.6-3.2,11.4C-7.2-25.9-8.2-22-8.8-18s-0.8,8-0.5,12.1c0.2,2,0.5,4,1,6C-7.9,2-7.3,4-6.5,5.8
								c1.6,3.7,3.9,7.1,6.8,9.9S6.6,20.9,10.3,22.2"/>
						</g>
						<g id="g978-6" transform="translate(63.3014,745.1339)">
							<path id="path980" class="st3" d="M5.7-31.8c0.8,2.1,1.3,4.3,1.5,6.5s0.2,4.5,0.1,6.7C7.1-14.1,6.4-9.7,5.7-5.2
								c-0.6,4.5-1.4,8.9-2,13.4s-0.8,8.9-1.3,13.4L6.5-5.1C7.2-9.5,7.8-14,8-18.6c0.1-2.3,0-4.5-0.3-6.8
								C7.3-27.6,6.7-29.8,5.7-31.8"/>
						</g>
						<g id="g982-7" transform="translate(58.5096,784.1664)">
							<path id="path984" class="st3" d="M-0.7,20.3c-0.9-2.8-1.7-5.7-2.2-8.6C-3.5,8.9-4,5.9-4.3,3c-0.6-5.9-0.6-11.8,0-17.6
								c0.6-5.9,1.9-11.6,3.4-17.4c0.7-2.9,1.5-5.7,2.2-8.6c0.6-2.9,1.2-5.8,1.1-8.8c-0.1,3-0.8,5.9-1.6,8.7C0-37.8-0.8-35-1.6-32.2
								c-1.7,5.7-3,11.5-3.7,17.5c-0.3,3-0.4,6-0.4,8.9c0,3,0.2,6,0.6,8.9c0.4,3,0.9,5.9,1.7,8.8C-2.7,14.7-1.8,17.6-0.7,20.3"/>
						</g>
						<g id="g986" transform="translate(56.1314,783.1213)">
							<path id="path988" class="st41" d="M-3.9,18.9c-1.3-2.5-2.2-5.1-2.9-7.8C-7.5,8.5-8,5.7-8.4,3C-9.1-2.5-9.2-8.1-8.6-13.6
								c0.6-5.5,1.9-10.9,4.1-16c1.1-2.5,2.4-5,3.6-7.5s2.6-4.9,4-7.3c-0.9,1.1-1.7,2.2-2.5,3.3s-1.6,2.3-2.3,3.5s-1.4,2.4-2,3.7
								C-4.4-32.6-5-31.3-5.6-30c-2.2,5.2-3.5,10.7-4,16.3C-10.2-8.1-9.9-2.5-9,3.1c0.4,2.8,1.1,5.5,1.9,8.2
								C-6.3,13.9-5.3,16.6-3.9,18.9"/>
						</g>
						<g id="g990" transform="translate(58.712,783.2783)">
							<path id="path992" class="st3" d="M-0.4,19.2c2.5,3.9,6.1,7,9.9,9.7c1.9,1.3,4,2.4,6.2,3.2c0.8,0.3,1.6,0.5,2.5,0.6
								c0.3,0.1,0.7,0.1,1,0.1c0.6,0,1.2,0,1.8-0.1c0.6-0.1,1.2-0.3,1.8-0.5c4.5-1.6,8.3-4.2,12.2-6.7c2-1.2,4-2.3,6.1-3
								c1.1-0.3,2.2-0.6,3.3-0.5s2.2,0.4,3.2,1c-0.9-0.7-2.1-1.1-3.2-1.3c-1.2-0.2-2.4,0-3.5,0.3c-2.3,0.6-4.4,1.7-6.4,2.8
								c-4,2.3-7.8,4.9-12.2,6.4c-0.5,0.2-1.1,0.3-1.6,0.4s-1.1,0.1-1.6,0.1c-1.1-0.1-2.2-0.3-3.3-0.7c-2.1-0.7-4.2-1.8-6.1-3
								s-3.8-2.6-5.5-4.1C2.6,22.6,1,21-0.4,19.2"/>
						</g>
						<g id="g994" transform="translate(79.3224,784.9538)">
							<path id="path996" class="st4" d="M27.1,21.4c0.9,0.8,2.1,1.3,3.3,1.3c1.2,0.1,2.5-0.2,3.6-0.8c2-1,3.4-2.4,4.6-4.4
								c0-0.1,0.2-0.3,0.3-0.5c0.1-0.1,0.1-0.3,0.2-0.3c1.2-2.3,2-4.5,2.1-6.9S40.8,5,39.4,3c1.1,2.1,1.4,4.4,1.2,6.8
								c-0.2,2.3-1,4.6-2.2,6.6s-2.8,3.8-4.8,4.9c-1,0.6-2.1,0.9-3.2,0.9C29.3,22.3,28.2,22,27.1,21.4"/>
						</g>
						<g id="g998" transform="translate(64.4167,747.8554)">
							<path id="path1000-6" class="st3" d="M7.2-28.2c1.1-5.1,2.8-10.1,5.2-14.7c1.2-2.3,2.5-4.6,4-6.7l2.2-3.2l1.1-1.6
								c0.4-0.5,0.7-1.1,1.1-1.7c1.4-2.2,2.6-4.6,3.8-6.9c1.1-2.4,2-4.9,2.7-7.4s1.2-5.1,1.4-7.7c0.3-2.6,0.3-3.7,0.2-6.3
								c-0.1,2.6-0.2,3.7-0.5,6.3c-0.3,2.6-0.9,5.1-1.6,7.6C26-68,25-65.6,24-63.2c-1.2,2.3-2.4,4.6-3.8,6.8
								c-0.4,0.5-0.7,1.1-1.1,1.6L18-53.2c-0.7,1.1-1.5,2.1-2.2,3.2c-1.5,2.2-2.8,4.5-3.9,6.8C9.5-38.5,7.9-33.4,7.2-28.2"/>
						</g>
						<g id="g1002" transform="translate(63.794,753.8933)">
							<path id="path1004" class="st40" d="M6.4-20.1c0.4-3.5,1.3-7,2.4-10.4s2.3-6.7,3.8-9.9c3-6.4,6.8-12.5,11.8-17.5
								c1.2-1.2,2.5-2.5,3.7-3.9s2.2-2.8,3.2-4.3c1.9-3,3.4-6.3,4.4-9.8c1.6-5.8,1.8-11.9,0.8-17.8c-0.2-1.1-0.4-2.3-0.7-3.4
								c0.7,3.5,1,7,0.9,10.6c-0.1,3.5-0.6,7.1-1.6,10.4c-1,3.4-2.5,6.6-4.4,9.6c-1,1.5-2,2.9-3.2,4.2s-2.4,2.5-3.7,3.8
								c-5,5.2-8.9,11.3-11.8,17.8c-1.4,3.3-2.7,6.6-3.6,10.1c-0.5,1.7-0.9,3.4-1.3,5.2C6.8-23.6,6.5-21.9,6.4-20.1"/>
						</g>
						<g id="g1006" transform="translate(81.943,757.843)">
							<path id="path1008" class="st36" d="M30.6-14.8c1.9,3.6,3.4,7.3,4.7,11.1s2.4,7.6,3.3,11.6c0.9,3.9,1.5,7.9,1.7,11.9
								c0.1,2,0.1,4-0.1,6L40,27.3l-0.3,1.5l-0.1,0.7c-0.1,0.2-0.2,0.5-0.2,0.7l-0.5,1.4c1.9-3.6,2.3-7.8,2.3-11.9
								c0-2-0.1-4.1-0.4-6.1c-0.2-2-0.6-4-1-6c-0.9-4-2.1-7.9-3.6-11.6C34.8-7.8,32.9-11.5,30.6-14.8"/>
						</g>
					</g>
				</g>
			</g>
		</g>
		<g id="g1010">
			<g>
				<g>
					<defs>
						<path id="SVGID_51_" d="M68.5,744.4c-0.1,0.7-0.2,1.1-0.2,1.1l0,0C68.2,745.5,68.3,745.1,68.5,744.4 M67.9,714.5
							c0.4-0.7,0.7-1.2,1-1.8l0,0c0.2-0.3,0.3-0.6,0.5-0.8l0,0c13.2-23,33.8-39.8,22.2-58l0,0c-1-1.6-2.1-3.3-3.9-4.9l0,0
							c2.1,1.7,3.7,1.5,5.2,1.3l0,0c1.5-0.2,2.9-0.4,4.4,1.6l0,0c0.4,0.6,1,1.5,1.5,2.7l0,0c0.3,0.6,0.5,1.3,0.7,2.2l0,0
							c0,0,6.3-8.5,12.5-2.3l0,0c2.1,6.9,2.9,17.4-6.3,28.7l0,0c-10.5,12.9-17.1,14.2-25.6,28.8l0,0c-6.7,11.5-10.7,28.2-11.7,32.5
							l0,0C69.5,739.7,73,720.8,67.9,714.5"/>
					</defs>
					<clipPath id="SVGID_52_">
						<use xlink:href="#SVGID_51_"  style="overflow:visible;"/>
					</clipPath>
					<g id="g1012" class="st53">
						<g id="g1018">
							<g id="g1020">
							</g>
							<g id="g1054">
								<g id="g1056">
									
										<linearGradient id="path1064_1_" gradientUnits="userSpaceOnUse" x1="-229.3192" y1="889.3138" x2="-228.319" y2="889.3138" gradientTransform="matrix(63.1369 0 0 -63.1369 14546.4521 56845.7812)">
										<stop  offset="0" style="stop-color:#DAD7D3"/>
										<stop  offset="1" style="stop-color:#FAF6F2"/>
									</linearGradient>
									<path id="path1064" class="st54" d="M68.5,744.4c-0.1,0.7-0.2,1.1-0.2,1.1l0,0C68.2,745.5,68.3,745.1,68.5,744.4
										 M67.9,714.5c0.4-0.7,0.7-1.2,1-1.8l0,0c0.2-0.3,0.3-0.6,0.5-0.8l0,0c13.2-23,33.8-39.8,22.2-58l0,0
										c-1-1.6-2.1-3.3-3.9-4.9l0,0c2.1,1.7,3.7,1.5,5.2,1.3l0,0c1.5-0.2,2.9-0.4,4.4,1.6l0,0c0.4,0.6,1,1.5,1.5,2.7l0,0
										c0.3,0.6,0.5,1.3,0.7,2.2l0,0c0,0,6.3-8.5,12.5-2.3l0,0c2.1,6.9,2.9,17.4-6.3,28.7l0,0c-10.5,12.9-17.1,14.2-25.6,28.8l0,0
										c-6.7,11.5-10.7,28.2-11.7,32.5l0,0C69.5,739.7,73,720.8,67.9,714.5"/>
								</g>
							</g>
						</g>
					</g>
				</g>
			</g>
		</g>
		<g id="g1066">
			<g>
				<g>
					<defs>
						<path id="SVGID_53_" d="M55.7,797.2c-1.9-8.3-3.1-20.5-1.2-33l0,0c0.8-5.4,4.9-17.3,5.8-23.1l0,0c-2.3,18.3-11,53.3,16.9,66.6
							l0,0l0,0C70.5,806.1,57.4,796.3,55.7,797.2"/>
					</defs>
					<clipPath id="SVGID_54_">
						<use xlink:href="#SVGID_53_"  style="overflow:visible;"/>
					</clipPath>
					<g id="g1068" class="st55">
						<g id="g1074-5">
							<g id="g1076-5">
							</g>
							<g id="g1110">
								<g id="g1112">
									
										<linearGradient id="path1120_1_" gradientUnits="userSpaceOnUse" x1="-237.1217" y1="891.6816" x2="-236.1217" y2="891.6816" gradientTransform="matrix(-2.1152 39.9787 39.9787 2.1152 -36082.918 8355.9766)">
										<stop  offset="0" style="stop-color:#BBB8B5"/>
										<stop  offset="1" style="stop-color:#FAF6F2"/>
									</linearGradient>
									<path id="path1120" class="st56" d="M55.7,797.2c-1.9-8.3-3.1-20.5-1.2-33l0,0c0.8-5.4,4.9-17.3,5.8-23.1l0,0
										c-2.3,18.3-11,53.3,16.9,66.6l0,0l0,0C70.5,806.1,57.4,796.3,55.7,797.2"/>
								</g>
							</g>
						</g>
					</g>
				</g>
			</g>
		</g>
		<g id="g1122">
			<g>
				<g>
					<defs>
						<path id="SVGID_55_" d="M87.3,819.1c-4.9-0.1-12.7-2.2-18.1-2.7l0,0c-1.7-0.2-3-0.5-4.1-0.9l0,0c-3.1-1.2-3.9-3.2-5.2-4.9l0,0
							c-0.8-1-1.3-1.3-2-1.4l0,0l0,0l0,0c-5.2-1.9-17.6-17.2-15-38.3l0,0c0.2-2.1,0.6-4.1,1.2-6.1l0,0c5.1-20.2,22.3-47.4,26.5-55.1
							l0,0c-3.1-7.1-9.7-21.8-11.8-35.6l0,0c-0.1-0.5-0.6-3.6-0.6-6.3l0,0c-0.3-7,1-13.4,5.1-18.1l0,0l0.8-0.9l0,0
							c2.1-2,4.5-3.4,7-4.1l0,0l0,0c3.5-1.5,6.2-0.7,8.7-0.2l0,0c1.2-0.7,2.4-1.2,3.6-1.7l0,0c7.4-2.5,15.6-0.5,19.4,1.7l0,0
							c5.2,1.7,7.5,4.7,9,9.4l0,0c1.5,4.4,3.8,13.5-1.4,26.9l0,0c-2.3,5.8-7,14.8-14.2,28l0,0v0.1c5.8,10.9,21.2,37.8,23.9,45.7l0,0
							c0.1,0.4,0.3,0.8,0.4,1.2l0,0c4.7,11.9,7.7,27.7-0.3,42.4l0,0c-0.4,0.8-1.9,3.5-2.4,4.5l0,0c-0.1,0.2-0.2,0.3-0.2,0.3l0,0
							c-6.4,11.8-6.7,9.6-10.7,10.3l0,0c-0.1,0-0.3,0.1-0.4,0.1l0,0c-4.6,1.1-12.4,4-16.3,5.4l0,0c-0.7,0.2-1.5,0.4-2.6,0.4l0,0
							h-0.3V819.1z M92.3,715.3c-0.2,0.4-0.5,0.8-0.7,1.2l0,0c-8.9,15.9-18.4,29.8-23.6,42.8l0,0c-1.1,3.5-2,7-2.6,10.3l0,0
							c-2,9.5-1.1,15.1,2.5,22.8l0,0c3.5,7.4,14.1,16.7,20,13.8l0,0c6.5-3.1,10.1-3.9,12.4-3.6l0,0c2.3,0.3,3.4,1.5,4.9,2.7l0,0
							c0.3,0.3,1.1,0.8,1.1,0.9l0,0c3.5-2.7,6-5.9,8.1-9.1l0,0c17.8-26.9-11.6-68.2-21.1-83.6l0,0C92.7,714.7,92.3,715.3,92.3,715.3
							 M70.4,653.3c-1.3,0.2-2.7,0.7-4,1.6l0,0c-1.8,1.2-3.1,3.1-3.8,5.1l0,0c-2.1,6.2-1.6,18.6,9.5,46.6l0,0
							c1.2-2.5,2.3-4.9,2.7-5.9l0,0c6.4-13,8-24.9,8-32.1l0,0c-0.7-9-5-14.4-9.9-15.3l0,0c-0.5-0.1-1.1-0.1-1.6-0.1l0,0
							C71.1,653.3,70.7,653.3,70.4,653.3"/>
					</defs>
					<clipPath id="SVGID_56_">
						<use xlink:href="#SVGID_55_"  style="overflow:visible;"/>
					</clipPath>
					<g id="g1124" class="st57">
						<g id="g1130">
							<g id="g1132">
							</g>
							<g id="g1170">
								<g id="g1172-6">
									
										<linearGradient id="path1182_1_" gradientUnits="userSpaceOnUse" x1="-231.8708" y1="885.6736" x2="-230.8708" y2="885.6736" gradientTransform="matrix(0 -214.9358 -214.9358 0 190446.7812 -49033.2891)">
										<stop  offset="0" style="stop-color:#DAD7D3"/>
										<stop  offset="0.5124" style="stop-color:#FFFBF7"/>
										<stop  offset="1" style="stop-color:#EEEBE7"/>
									</linearGradient>
									<path id="path1182" class="st58" d="M87.3,819.1c-4.9-0.1-12.7-2.2-18.1-2.7l0,0c-1.7-0.2-3-0.5-4.1-0.9l0,0
										c-3.1-1.2-3.9-3.2-5.2-4.9l0,0c-0.8-1-1.3-1.3-2-1.4l0,0l0,0l0,0c-5.2-1.9-17.6-17.2-15-38.3l0,0c0.2-2.1,0.6-4.1,1.2-6.1
										l0,0c5.1-20.2,22.3-47.4,26.5-55.1l0,0c-3.1-7.1-9.7-21.8-11.8-35.6l0,0c-0.1-0.5-0.6-3.6-0.6-6.3l0,0
										c-0.3-7,1-13.4,5.1-18.1l0,0l0.8-0.9l0,0c2.1-2,4.5-3.4,7-4.1l0,0l0,0c3.5-1.5,6.2-0.7,8.7-0.2l0,0
										c1.2-0.7,2.4-1.2,3.6-1.7l0,0c7.4-2.5,15.6-0.5,19.4,1.7l0,0c5.2,1.7,7.5,4.7,9,9.4l0,0c1.5,4.4,3.8,13.5-1.4,26.9l0,0
										c-2.3,5.8-7,14.8-14.2,28l0,0v0.1c5.8,10.9,21.2,37.8,23.9,45.7l0,0c0.1,0.4,0.3,0.8,0.4,1.2l0,0
										c4.7,11.9,7.7,27.7-0.3,42.4l0,0c-0.4,0.8-1.9,3.5-2.4,4.5l0,0c-0.1,0.2-0.2,0.3-0.2,0.3l0,0c-6.4,11.8-6.7,9.6-10.7,10.3
										l0,0c-0.1,0-0.3,0.1-0.4,0.1l0,0c-4.6,1.1-12.4,4-16.3,5.4l0,0c-0.7,0.2-1.5,0.4-2.6,0.4l0,0h-0.3V819.1z M92.3,715.3
										c-0.2,0.4-0.5,0.8-0.7,1.2l0,0c-8.9,15.9-18.4,29.8-23.6,42.8l0,0c-1.1,3.5-2,7-2.6,10.3l0,0c-2,9.5-1.1,15.1,2.5,22.8l0,0
										c3.5,7.4,14.1,16.7,20,13.8l0,0c6.5-3.1,10.1-3.9,12.4-3.6l0,0c2.3,0.3,3.4,1.5,4.9,2.7l0,0c0.3,0.3,1.1,0.8,1.1,0.9l0,0
										c3.5-2.7,6-5.9,8.1-9.1l0,0c17.8-26.9-11.6-68.2-21.1-83.6l0,0C92.7,714.7,92.3,715.3,92.3,715.3 M70.4,653.3
										c-1.3,0.2-2.7,0.7-4,1.6l0,0c-1.8,1.2-3.1,3.1-3.8,5.1l0,0c-2.1,6.2-1.6,18.6,9.5,46.6l0,0c1.2-2.5,2.3-4.9,2.7-5.9l0,0
										c6.4-13,8-24.9,8-32.1l0,0c-0.7-9-5-14.4-9.9-15.3l0,0c-0.5-0.1-1.1-0.1-1.6-0.1l0,0C71.1,653.3,70.7,653.3,70.4,653.3"/>
								</g>
							</g>
						</g>
					</g>
				</g>
			</g>
		</g>
		<g id="g1184">
			<g>
				<g>
					<defs>
						<path id="SVGID_57_" d="M87.6,819.1c-4.9,0-12.8-2.2-18.3-2.7l0,0c-1.7-0.2-3-0.5-4.1-0.9l0,0c-3.1-1.2-3.9-3.2-5.2-4.9l0,0
							c-0.8-1-1.3-1.3-2-1.4l0,0l0,0l0,0c-5.2-1.9-17.6-17.2-15-38.3l0,0c0.2-2.1,0.6-4.1,1.2-6.1l0,0c5.1-20.2,22.3-47.4,26.5-55.1
							l0,0c-3.1-7.1-9.7-21.8-11.8-35.6l0,0c-0.1-0.5-0.6-3.6-0.6-6.3l0,0c-0.3-7,1-13.4,5.1-18.1l0,0l0.8-0.9l0,0
							c2.1-2,4.5-3.4,7-4.1l0,0l0,0c3.5-1.5,6.2-0.7,8.7-0.2l0,0c1.2-0.7,2.4-1.2,3.6-1.7l0,0c2.5-0.9,5.1-1.2,7.6-1.2l0,0
							c4.8,0,9.3,1.4,11.9,2.8l0,0c5.2,1.7,7.5,4.7,9,9.4l0,0c1.5,4.4,3.8,13.5-1.4,26.9l0,0c-2.3,5.8-7,14.8-14.2,28l0,0v0.1
							c5.8,10.9,21.2,37.8,23.9,45.7l0,0c0.1,0.4,0.3,0.8,0.4,1.2l0,0c4.7,11.9,7.7,27.7-0.3,42.4l0,0c-0.4,0.8-1.9,3.5-2.4,4.5l0,0
							c-0.1,0.2-0.2,0.3-0.2,0.3l0,0c-6.4,11.8-6.7,9.6-10.7,10.3l0,0c-0.1,0-0.3,0.1-0.4,0.1l0,0c-4.6,1.1-12.4,4-16.3,5.4l0,0
							C89.7,819,88.7,819.1,87.6,819.1L87.6,819.1L87.6,819.1z M92.3,715.3c-0.2,0.4-0.5,0.8-0.7,1.2l0,0
							c-8.9,15.9-18.4,29.8-23.6,42.8l0,0c-1.1,3.5-2,7-2.6,10.3l0,0c-2,9.5-1.1,15.1,2.5,22.8l0,0c3.5,7.4,14.1,16.7,20,13.8l0,0
							c6.5-3.1,10.1-3.9,12.4-3.6l0,0c2.3,0.3,3.4,1.5,4.9,2.7l0,0c0.3,0.3,1.1,0.8,1.1,0.9l0,0c3.5-2.7,6-5.9,8.1-9.1l0,0
							c17.8-26.9-11.6-68.2-21.1-83.6l0,0C92.7,714.7,92.3,715.3,92.3,715.3 M70.4,653.3c-1.3,0.2-2.7,0.7-4,1.6l0,0
							c-1.8,1.2-3.1,3.1-3.8,5.1l0,0c-2.1,6.2-1.6,18.6,9.5,46.6l0,0c1.2-2.5,2.3-4.9,2.7-5.9l0,0c6.4-13,8-24.9,8-32.1l0,0
							c-0.7-9-5-14.4-9.9-15.3l0,0c-0.5-0.1-1.1-0.1-1.6-0.1l0,0C71.1,653.3,70.7,653.3,70.4,653.3"/>
					</defs>
					<clipPath id="SVGID_58_">
						<use xlink:href="#SVGID_57_"  style="overflow:visible;"/>
					</clipPath>
					<g id="g1186" class="st59">
						<g id="g1192">
							<g id="g1194">
							</g>
							<g id="g1232-4">
								<g id="g1234-8">
									
										<linearGradient id="path1244_1_" gradientUnits="userSpaceOnUse" x1="-231.8708" y1="885.6728" x2="-230.8708" y2="885.6728" gradientTransform="matrix(0 -214.9355 -214.9355 0 190446.5625 -49024.1484)">
										<stop  offset="0" style="stop-color:#DAD7D3"/>
										<stop  offset="0.5124" style="stop-color:#FFFBF7"/>
										<stop  offset="1" style="stop-color:#EEEBE7"/>
									</linearGradient>
									<path id="path1244" class="st60" d="M87.6,819.1c-4.9,0-12.8-2.2-18.3-2.7l0,0c-1.7-0.2-3-0.5-4.1-0.9l0,0
										c-3.1-1.2-3.9-3.2-5.2-4.9l0,0c-0.8-1-1.3-1.3-2-1.4l0,0l0,0l0,0c-5.2-1.9-17.6-17.2-15-38.3l0,0c0.2-2.1,0.6-4.1,1.2-6.1
										l0,0c5.1-20.2,22.3-47.4,26.5-55.1l0,0c-3.1-7.1-9.7-21.8-11.8-35.6l0,0c-0.1-0.5-0.6-3.6-0.6-6.3l0,0
										c-0.3-7,1-13.4,5.1-18.1l0,0l0.8-0.9l0,0c2.1-2,4.5-3.4,7-4.1l0,0l0,0c3.5-1.5,6.2-0.7,8.7-0.2l0,0
										c1.2-0.7,2.4-1.2,3.6-1.7l0,0c2.5-0.9,5.1-1.2,7.6-1.2l0,0c4.8,0,9.3,1.4,11.9,2.8l0,0c5.2,1.7,7.5,4.7,9,9.4l0,0
										c1.5,4.4,3.8,13.5-1.4,26.9l0,0c-2.3,5.8-7,14.8-14.2,28l0,0v0.1c5.8,10.9,21.2,37.8,23.9,45.7l0,0
										c0.1,0.4,0.3,0.8,0.4,1.2l0,0c4.7,11.9,7.7,27.7-0.3,42.4l0,0c-0.4,0.8-1.9,3.5-2.4,4.5l0,0c-0.1,0.2-0.2,0.3-0.2,0.3l0,0
										c-6.4,11.8-6.7,9.6-10.7,10.3l0,0c-0.1,0-0.3,0.1-0.4,0.1l0,0c-4.6,1.1-12.4,4-16.3,5.4l0,0
										C89.7,819,88.7,819.1,87.6,819.1L87.6,819.1L87.6,819.1z M92.3,715.3c-0.2,0.4-0.5,0.8-0.7,1.2l0,0
										c-8.9,15.9-18.4,29.8-23.6,42.8l0,0c-1.1,3.5-2,7-2.6,10.3l0,0c-2,9.5-1.1,15.1,2.5,22.8l0,0c3.5,7.4,14.1,16.7,20,13.8
										l0,0c6.5-3.1,10.1-3.9,12.4-3.6l0,0c2.3,0.3,3.4,1.5,4.9,2.7l0,0c0.3,0.3,1.1,0.8,1.1,0.9l0,0c3.5-2.7,6-5.9,8.1-9.1l0,0
										c17.8-26.9-11.6-68.2-21.1-83.6l0,0C92.7,714.7,92.3,715.3,92.3,715.3 M70.4,653.3c-1.3,0.2-2.7,0.7-4,1.6l0,0
										c-1.8,1.2-3.1,3.1-3.8,5.1l0,0c-2.1,6.2-1.6,18.6,9.5,46.6l0,0c1.2-2.5,2.3-4.9,2.7-5.9l0,0c6.4-13,8-24.9,8-32.1l0,0
										c-0.7-9-5-14.4-9.9-15.3l0,0c-0.5-0.1-1.1-0.1-1.6-0.1l0,0C71.1,653.3,70.7,653.3,70.4,653.3"/>
								</g>
							</g>
						</g>
					</g>
				</g>
			</g>
		</g>
		<g>
			<g>
				<defs>
					<rect id="SVGID_59_" x="-36.2" y="605.4" width="547" height="249.7"/>
				</defs>
				<clipPath id="SVGID_60_">
					<use xlink:href="#SVGID_59_"  style="overflow:visible;"/>
				</clipPath>
				<g id="g1248" class="st61">
					<g id="g1254" transform="translate(70.6061,724.9276)">
						<path id="path1256-2" class="st62" d="M15.5-58.8c0.2,8.2-1.4,16.3-4,24s-6.2,15-10.4,22C-1-9.3-3.1-5.8-5.2-2.3
							c-2,3.6-4,7.1-5.9,10.8c-3.8,7.3-7.4,14.7-10,22.4c1.7-3.7,3.4-7.4,5.3-11S-12,12.7-10,9.1C-5.9,2-1.7-5,2.5-12
							c4.2-7.1,7.8-14.5,10.2-22.4c1.2-3.9,2.1-8,2.6-12.1C15.8-50.6,15.9-54.7,15.5-58.8"/>
					</g>
					<g id="g1258">
						<g id="g1260">
						</g>
						<g id="g1294-9">
							<g>
								<g>
									<defs>
										<rect id="SVGID_61_" x="39.3" y="641.8" width="72.8" height="132.6"/>
									</defs>
									<clipPath id="SVGID_62_">
										<use xlink:href="#SVGID_61_"  style="overflow:visible;"/>
									</clipPath>
									<g id="g1292-7" class="st63">
										<g id="g1290-2">
											<g id="g1288-2">
												<g id="g1286">
													<g id="g1284">
														
															<linearGradient id="path1282_1_" gradientUnits="userSpaceOnUse" x1="-234.3229" y1="887.9444" x2="-233.3229" y2="887.9444" gradientTransform="matrix(-30.1302 123.9102 123.9102 30.1302 -116993.8906 2938.0415)">
															<stop  offset="0" style="stop-color:#FAF6F2"/>
															<stop  offset="0.5124" style="stop-color:#FFFBF7"/>
															<stop  offset="0.6773" style="stop-color:#FFFBF7"/>
															<stop  offset="0.901" style="stop-color:#EBE7E3"/>
															<stop  offset="1" style="stop-color:#CCC9C6"/>
														</linearGradient>
														<path id="path1282" class="st64" d="M54.8,744.8c1.9-3.6,3.8-7.2,5.8-10.8l0,0c0.8-1.5,1.7-2.9,2.5-4.4l0,0
															c2.4-3.8,5.1-7.8,8.1-11.7l0,0c13.6-17.6,22.1-35.6,16-53l0,0c-1.1-3.2-0.6-4.6,0.9-4.7l0,0h0.2
															c3.9,0.2,13.5,10,13.6,24.8l0,0v0.7c-0.1,10.2-4.7,22.6-18.4,35.9l0,0c-21.3,16.2-34,34.1-34,34.1l0,0
															C51.1,752.1,52.9,748.4,54.8,744.8"/>
													</g>
												</g>
											</g>
										</g>
									</g>
								</g>
							</g>
						</g>
					</g>
					<g id="g1296-0" transform="translate(64.6391,742.2646)">
						<path id="path1298" class="st42" d="M7.5-35.6c-0.5,1.1-0.9,1.9-1.5,3C2.9-39.7-3.7-54.4-5.8-68.2c-0.1-0.5-0.6-3.6-0.6-6.3
							c0-0.5,0.1-0.9,0.2-1.3c1.9-8,4.8-9.4,6-9.6c-0.8,0.9-1.3,2-1.7,3.2C-4-76-3.6-63.7,7.5-35.6"/>
					</g>
					<g id="g1300" transform="translate(81.058,731.191)">
						<path id="path1302" class="st36" d="M29.4-50.4c-2.3,5.8-7,14.8-14.2,28v0.1l-4.7,7.7C1.7,1.2-7.8,15.1-13,28.1
							c-1.1,3.5-2,7-2.6,10.3l0,0c0,0,0,0,0,0.1c0.5-3.2,0.4-6.6,1.4-11.7c2-9.6,6.4-20.3,14.4-30.2C9.7-15,20.5-29.2,25.4-51
							c0.6-2.8,1.6-9.1,2-14.9c0.5-7-0.9-11.9-3.4-17c0.1-0.1,1.6-2.1,5.9,4c0.4,0.5,0.6,1.1,0.9,1.6C32.3-72.9,34.6-63.8,29.4-50.4
							"/>
					</g>
				</g>
			</g>
		</g>
		<g id="g1304">
			<g id="g1306">
				<g id="g1312">
					<g id="g1314">
						
							<linearGradient id="path1324_1_" gradientUnits="userSpaceOnUse" x1="-231.6691" y1="880.0846" x2="-230.6691" y2="880.0846" gradientTransform="matrix(-20.3291 -35.0865 -35.0865 20.3291 26231.7227 -25221.8438)">
							<stop  offset="0" style="stop-color:#791426"/>
							<stop  offset="0.5347" style="stop-color:#AF1C3B"/>
							<stop  offset="1" style="stop-color:#791426"/>
						</linearGradient>
						<path id="path1324" class="st65" d="M49.1,786.4c0-3.6,2.9-6.5,6.5-6.5l0,0c3.6,0,6.5,2.9,6.5,6.5l0,0c0,3.6-2.9,6.5-6.5,6.5
							l0,0C52,792.9,49.1,790,49.1,786.4 M56.5,789.5c-0.7,0.3-1.1,0.9-1.1,1.6l0,0c0.1,0,0.1,0,0.2,0l0,0c1.1,0,2-0.4,2.8-1l0,0
							c-0.3-0.4-0.8-0.7-1.4-0.7l0,0C56.9,789.4,56.7,789.4,56.5,789.5 M51.3,788c0.4,1,1.2,1.9,2.1,2.4l0,0
							c0.1-0.2,0.2-0.5,0.2-0.8l0,0c0-0.9-0.8-1.7-1.7-1.7l0,0C51.7,787.9,51.5,788,51.3,788 M54.6,784.7l-0.8,1.6
							c-0.1,0.2-0.1,0.4,0.1,0.5l0,0l1.3,1.3c0.1,0.1,0.4,0.2,0.5,0.1l0,0l1.6-0.8c0.2-0.1,0.3-0.3,0.3-0.5l0,0l-0.2-1.8
							c0-0.2-0.2-0.4-0.4-0.4l0,0l-1.8-0.3h-0.1l0,0C54.9,784.5,54.7,784.6,54.6,784.7 M58.8,786c0,0.8,0.6,1.5,1.3,1.6l0,0
							c0.1-0.4,0.2-0.9,0.2-1.3l0,0c0-0.7-0.1-1.3-0.4-1.9l0,0C59.2,784.7,58.8,785.3,58.8,786 M51.1,785.3c0.1,0,0.3,0.1,0.4,0.1
							l0,0c0.9,0,1.7-0.8,1.7-1.7l0,0c0-0.4-0.1-0.7-0.4-1l0,0C52,783.3,51.4,784.2,51.1,785.3 M55.2,781.7c0.1,0.8,0.8,1.5,1.7,1.5
							l0,0c0.6,0,1.1-0.3,1.4-0.7l0,0c-0.7-0.5-1.6-0.8-2.6-0.8l0,0C55.5,781.7,55.3,781.7,55.2,781.7"/>
					</g>
				</g>
			</g>
		</g>
		<g id="g1326">
			<g id="g1328">
				<g id="g1334">
					<g id="g1336">
						
							<linearGradient id="path1346_1_" gradientUnits="userSpaceOnUse" x1="-231.6692" y1="880.0839" x2="-230.6692" y2="880.0839" gradientTransform="matrix(-20.3305 -35.0888 -35.0888 20.3305 26230.7051 -25222.0117)">
							<stop  offset="0" style="stop-color:#791426"/>
							<stop  offset="0.5347" style="stop-color:#AF1C3B"/>
							<stop  offset="1" style="stop-color:#791426"/>
						</linearGradient>
						<path id="path1346" class="st66" d="M56.4,798.2l1.5-2.6l2.6,1.5l-1.5,2.6L56.4,798.2z"/>
					</g>
				</g>
			</g>
		</g>
		<g id="g1348">
			<g id="g1350-7">
				<g id="g1356-8">
					<g id="g1358-2">
						
							<linearGradient id="path1368_1_" gradientUnits="userSpaceOnUse" x1="-231.6691" y1="880.084" x2="-230.6691" y2="880.084" gradientTransform="matrix(-20.3286 -35.0855 -35.0855 20.3286 26235.4414 -25223.7559)">
							<stop  offset="0" style="stop-color:#791426"/>
							<stop  offset="0.5347" style="stop-color:#AF1C3B"/>
							<stop  offset="1" style="stop-color:#791426"/>
						</linearGradient>
						<path id="path1368" class="st67" d="M52.7,774.8l2.2-2.1l2.1,2.2l-2.2,2.1L52.7,774.8z"/>
					</g>
				</g>
			</g>
		</g>
		<g id="g1370">
			<g id="g1372">
				<g id="g1378">
					<g id="g1380">
						
							<linearGradient id="path1390_1_" gradientUnits="userSpaceOnUse" x1="-233.0228" y1="887.9634" x2="-232.0228" y2="887.9634" gradientTransform="matrix(76.7089 182.1833 182.1833 -76.7089 -143830.1094 111161.0312)">
							<stop  offset="0" style="stop-color:#791426"/>
							<stop  offset="0.5347" style="stop-color:#AF1C3B"/>
							<stop  offset="1" style="stop-color:#791426"/>
						</linearGradient>
						<path id="path1390" class="st68" d="M96.6,664.9c-0.2-0.3-0.4-0.8-0.4-1.5l0,0c-0.1-0.7,0-1.3,0-1.8l0,0
							c-0.2,0.3-0.7,0.4-1,0.2l0,0c0.1-0.3,0.2-0.5,0.2-0.8l0,0c0-0.2,0-0.4,0-0.6l0,0c-0.5-0.3-1-0.8-1.1-1.6l0,0
							c0-0.1,0-0.3,0-0.4l0,0c-0.2,0.5-0.5,1.1-0.6,1.6l0,0c-0.1,0.4-0.4,0.8-0.6,1l0,0c-0.1,0.1-0.2,0.1-0.2,0.1l0,0
							c-0.1-0.1-0.1-0.3-0.1-0.4l0,0c0-0.1,0-0.1-0.1-0.3l0,0c-0.2,0.2-0.3,0.3-0.4,0.4l0,0c-0.1,0.1-0.3,0.1-0.4,0.1l0,0
							c-0.3,0.1-0.4,0-0.4-0.4l0,0c0-0.1,0-0.3,0-0.5l0,0c-0.7,0.2-1-0.3-1-0.3l0,0c0.1-0.1,0.3-0.2,0.3-0.4l0,0
							c0-0.2,0-0.5-0.1-0.7l0,0c-0.2-0.5-0.1-1.4,0.3-1.7l0,0c0.3-0.2,0.7-0.2,1.1,0.1l0,0c0.4,0.4,0.5,1.5,0.3,1.8l0,0
							c-0.1,0.2-0.2,0.2-0.5,0l0,0c0.1-0.1,0.2-0.3,0.2-0.5l0,0c0-0.2-0.1-0.4-0.3-0.6l0,0c-0.2-0.2-0.4-0.2-0.5-0.1l0,0
							c-0.3,0.3-0.3,0.8,0,1.3l0,0c0.1,0.1,0.2,0.4,0.3,0.4l0,0c0.4,0.3,0.8,0.3,1.1,0.2l0,0c0.3-0.2,0.5-0.6,0.5-1.1l0,0
							c0.1-0.9-0.4-2.3-0.3-3.2l0,0c0-0.8,0.6-1.1,1.3-1.3l0,0c0.3-0.1,1.1-0.1,1.2-0.2l0,0c0.8-0.3,1.5-0.2,1.9,0.5l0,0
							c0.4,0.8,0.7,2.2,1.2,3l0,0c0.3,0.4,0.6,0.7,1,0.7l0,0c0.3,0,0.7-0.2,0.9-0.6l0,0c0.1-0.1,0.1-0.4,0.1-0.5l0,0
							c0-0.5-0.2-1-0.6-1.1l0,0c-0.2-0.1-0.4,0-0.5,0.3l0,0c0,0.2,0,0.5,0,0.7l0,0c0.1,0.2,0.2,0.2,0.4,0.3l0,0
							c-0.1,0.3-0.2,0.3-0.4,0.2l0,0c-0.4-0.2-0.7-1.2-0.5-1.7l0,0c0.1-0.4,0.6-0.7,0.9-0.6l0,0c0.5,0.1,0.9,0.8,1,1.4l0,0
							c0,0.3,0.1,0.6,0.2,0.7l0,0c0.1,0.2,0.3,0.2,0.5,0.2l0,0c0,0,0,0,0.1,0.1l0,0c-0.1,0.6-0.5,0.5-0.8,0.6l0,0
							c0.1,0.2,0.1,0.3,0.2,0.4l0,0c0.2,0.4,0.2,0.5-0.1,0.5l0,0c-0.1,0-0.3,0.1-0.4,0l0,0c-0.2,0-0.4-0.1-0.6-0.2l0,0
							c0,0.1,0.1,0.2,0.1,0.2l0,0c0,0.1,0,0.3,0.1,0.4l0,0H100l0,0c-0.1,0-0.1,0-0.2,0l0,0c-0.3-0.1-0.5-0.3-0.9-0.5l0,0
							c-0.4-0.2-0.8-0.7-1.2-1.3l0,0c0,0.2,0.1,0.4,0.2,0.5l0,0c0.2,0.6,0.2,1,0,1.3l0,0l-0.3,0.4c0,0.1,0.1,0.1,0.1,0.2l0,0
							c0.1,0.4,0.3,0.7,0.5,1.1l0,0c-0.1,0.3-0.5,0.5-0.8,0.4l0,0c0.2,0.6,0.3,1.2,0.3,1.9l0,0c0,0.6-0.2,1-0.3,1.3l0,0l-0.1,0.1
							l0,0C96.7,665,96.6,665,96.6,664.9 M84.7,657.3c-0.1,0.4-0.2,0.7-0.3,1.1l0,0c-0.5-0.1-0.8-0.5-1-0.9l0,0
							c-0.2-0.4-0.3-0.8-0.5-1.2l0,0c-0.2,0.2-0.4,0.3-0.6,0.5l0,0c-0.6-0.7-0.7-1.5-0.2-2.4l0,0c0.5-0.7,1-1.4,1.5-2.1l0,0
							c0.6-0.8,1.2-1.5,1.2-2.5l0,0c0-0.9-0.5-1.8-1.3-2.4l0,0c-0.6-0.5-1.3-0.7-2.2-0.7l0,0l-0.1-0.3l0,0c0.1-0.4,0.7-0.2,1.1-0.1
							l0,0c2.5,0.6,4.1,2.5,3.4,4.4l0,0c-0.3,0.8-1.3,2-1.6,2.7l0,0c-0.3,0.6-0.6,1.2-0.5,1.9l0,0c0.2,0.8,1,1.7,2,1.5l0,0
							c0.6-0.1,1.1-0.6,1.1-1.2l0,0c0-0.4-0.3-0.9-0.7-1.1l0,0c-0.2-0.1-0.5-0.1-0.7,0l0,0c-0.2,0.2-0.2,0.4-0.1,0.6l0,0v0.1l0,0
							c-0.4,0-0.9-0.6-0.8-1l0,0c0.1-0.7,1.7-1.3,2.4-0.8l0,0c0.7,0.4,1,1.5,0.8,2.3l0,0c-0.2,0.8-0.6,1.2-1.4,1.5l0,0
							c-0.1,0-0.2,0.1-0.2,0.1l0,0c0.2,0.4,0.3,0.7,0.4,1.1l0,0h-0.1l0,0C85.6,658.5,85.2,658,84.7,657.3 M90.4,654.4
							c-0.5-0.2-1.1-0.8-1.2-1.2l0,0c0.2,0.1,0.5,0.1,0.7,0.2l0,0c0.4,0.1,0.7-0.2,0.8-0.6l0,0c0.1-0.4-0.2-1-0.5-1.3l0,0
							c-0.6-0.5-1.2-0.9-1.8-1.4l0,0c-0.7-0.5-1-1.1-1-1.8l0,0c0.1-0.9,0.8-1.6,1-1.7l0,0c-1.2-1.5-2.7-2.8-4.1-4l0,0
							c0.4-0.1,0.8-0.2,1.2-0.3l0,0c1.3,1.1,2.6,2.3,3.8,3.7l0,0c1.1-0.5,2.3-0.6,3.4,0.2l0,0c0.7,0.5,1,1.1,1.2,1.8l0,0
							c0.2,0.5,0.4,1,0.5,1.5l0,0c0.2,0.7,0.7,1.2,1.2,1.4l0,0c0.5,0.2,0.7,0,0.8-0.7l0,0c0-0.1,0-0.2,0-0.3l0,0
							c0.3,0.4,0.4,0.8,0.5,1.2l0,0c0.2,0.7,0,1.2-0.3,1.5l0,0c-0.4,0.3-1,0.4-1.6-0.1l0,0c-0.2-0.2-0.6-0.5-0.8-0.9l0,0
							c-0.3-0.5-0.5-0.9-0.8-1.4l0,0c-0.7-1-1.3-1.6-1.8-2l0,0c0.5,0.7,0.8,1.4,1.1,2.1l0,0c0.3,0.6,0.5,1.3,0.7,1.9l0,0
							c0,0.1,0,0.2,0.1,0.3l0,0c-0.1-0.1-0.2-0.1-0.2-0.2l0,0c-0.9-1.1-1.9-2-2.8-3l0,0c-0.1-0.1-0.2-0.2-0.3-0.3l0,0
							c0,0.5,0.4,1.2,0.8,1.7l0,0c0.1,0.1,0.3,0.3,0.4,0.5l0,0c0.4,0.5,0.7,1,1,1.6l0,0c0.3,0.7,0,1.2-0.4,1.5l0,0
							c-0.2,0.2-0.5,0.3-0.8,0.3l0,0C91,654.6,90.7,654.5,90.4,654.4 M80.4,652.6c-0.4,0-1.3,0.1-1.3,0l0,0c2.4-1.2,3.1-2.9,3.5-4.9
							l0,0c0.5,0.2,1,1.8,0.9,2.6l0,0c-0.1,1.1-0.7,1.9-1.8,2.7l0,0c0-0.2,0-0.2-0.1-0.4l0,0c-0.6,0.3-0.9,0.8-1.6,0.9l0,0
							C80.2,653.2,80.3,652.9,80.4,652.6 M101.9,649.6c0,0-0.1,0-0.2,0.1l0,0c-0.5,0.3-2.2,0.6-3.1-0.3l0,0
							c-0.6-0.7-1.3-2.4-0.2-3.1l0,0c0.3-0.2,0.5-0.3,0.9-0.1l0,0c0.4,0.2,0.6,0.5,0.8,0.9l0,0c0,0.1,0,0.1,0.1,0.3l0,0
							c-0.1-0.1-0.1-0.1-0.1-0.1l0,0c-0.4-0.4-0.6-0.5-0.7-0.4l0,0c-0.2,0.1-0.3,0.8-0.1,1.1l0,0c0.5,1,1.5,1.3,2,1l0,0
							c0.4-0.2,0.5-0.8,0.2-1.5l0,0c-0.4-0.9-1-1.6-1.7-1.9l0,0c-0.7-0.3-1.3-0.4-2-0.5l0,0c-0.4,0-0.8,0-1.3,0.1l0,0
							c-0.5,0.1-1.1,0.2-1.7,0.1l0,0c-1.7-0.5-3.6-2-4.7-3.5l0,0c0.2,0,0.4,0,0.7,0l0,0c0.3,0.4,0.7,0.7,1.1,1.1l0,0
							c1.3,1,2.5,1.5,3.7,1.4l0,0c0.9,0,1.8-0.2,2.6-0.3l0,0c0.5,0,1.1-0.1,1.6,0l0,0c0.8,0.1,1.5,0.7,2.2,1.8l0,0
							c-0.2,0-0.4,0.1-0.6,0.1l0,0c0.9,0.8,1.6,1.8,1.9,3l0,0c-0.4-0.3-0.7-0.5-1.1-0.7l0,0c0.2,0.5,0.5,1,0.6,1.5l0,0
							c0.2,0.5,0.1,0.9,0,1.2l0,0C102.4,650.4,102.2,650.1,101.9,649.6 M83.8,646.1c-0.5-0.4-0.5-1.1-0.1-1.7l0,0
							c0.1-0.2,0.3-0.4,0.4-0.5l0,0c0.5,0.4,0.8,0.8,1.3,1.1l0,0c1,0.7,1.2,1.6,1.1,2.5l0,0c0,0.2-0.1,0.4-0.2,0.7l0,0
							C85.5,647.4,84.6,646.8,83.8,646.1 M79.5,645.8c-0.5,0-0.9,0-1.4,0.1l0,0c0,0,0.5-0.5,0.8-0.7l0,0c-0.2-0.2-0.4-0.3-0.6-0.5
							l0,0c2.1,0.1,3.7-0.9,5.3-1.9l0,0c-0.2,1.3-2,3-4.2,3.3l0,0C79.5,646,79.5,645.9,79.5,645.8 M88,643.1
							c-0.3-0.4-0.8-0.8-1.2-1.1l0,0c0.8-0.1,1.5-0.2,2.2-0.3l0,0c0.1,0,0.2,0.1,0.3,0.1l0,0c0.4,0.3,0.8,0.7,1.1,1.1l0,0
							c0.2,0.3,0.4,0.6,0.7,0.9l0,0c0.2,0.3,0.5,0.6,0.7,0.8l0,0C90.3,644.6,89,644.2,88,643.1 M96,643.1c-1.3-0.1-2.8-0.7-4.2-1.5
							l0,0c2.2,0.1,4.3,0.4,6.2,0.9l0,0c-0.4,0.4-1,0.6-1.6,0.6l0,0C96.2,643.2,96.1,643.1,96,643.1"/>
					</g>
				</g>
			</g>
		</g>
		<g id="g1392">
			<g>
				<g>
					<defs>
						<rect id="SVGID_63_" x="-36.2" y="605.4" width="547" height="249.7"/>
					</defs>
					<clipPath id="SVGID_64_">
						<use xlink:href="#SVGID_63_"  style="overflow:visible;"/>
					</clipPath>
					<g id="g1394" class="st69">
						<g id="g1400">
							<g id="g1402">
							</g>
							<g id="g1432">
								<g>
									<g>
										<defs>
											<rect id="SVGID_65_" x="77.1" y="660.5" width="41.6" height="58.6"/>
										</defs>
										<clipPath id="SVGID_66_">
											<use xlink:href="#SVGID_65_"  style="overflow:visible;"/>
										</clipPath>
										<g id="g1430" class="st70">
											<g id="g1428">
												<g id="g1426">
													<g id="g1424">
														<g id="g1422">
															
																<linearGradient id="path1420_1_" gradientUnits="userSpaceOnUse" x1="-231.561" y1="886.0885" x2="-230.561" y2="886.0885" gradientTransform="matrix(89.4231 -200.1376 -200.1376 -89.4231 198112.8125 33646.418)">
																<stop  offset="0" style="stop-color:#791426"/>
																<stop  offset="0.5347" style="stop-color:#AF1C3B"/>
																<stop  offset="1" style="stop-color:#791426"/>
															</linearGradient>
															<path id="path1420" class="st71" d="M83,710.8C82.9,710.8,82.9,710.8,83,710.8L83,710.8L83,710.8
																c-0.1-0.5,0-0.9,0.4-1.5l0,0c0.4-0.6,0.9-1.1,1.4-1.5l0,0c-0.3-0.1-0.6-0.6-0.5-0.9l0,0c0.4-0.3,0.7-0.5,1.1-0.7l0,0
																c0.7-0.6,1.1-0.3,1.2,0l0,0c0,0.1-0.1,0.3-0.3,0.5l0,0c0.2-0.1,0.3-0.2,0.5-0.2l0,0c0.3,0.1,0.5,0.2,0.3,0.7l0,0
																c-0.1,0.3-0.4,0.6-0.5,0.8l0,0c-0.1,0.3-0.2,0.5-0.3,0.8l0,0c-0.3,0-0.7-0.3-0.8-0.7l0,0c-0.3,0.5-0.6,1.1-1.1,1.7
																l0,0c-0.4,0.6-0.9,0.9-1.2,1.1l0,0C83.1,710.8,83.1,710.8,83,710.8L83,710.8L83,710.8z M89.3,708.4
																c0.1-0.6,0.7-1.7,1.4-2.5l0,0c-0.3,0.7-0.2,1,0.1,1.4l0,0c0.1,0.1,0.1,0.6-0.3,1l0,0c-0.1,0.2-0.5,0.5-0.7,0.5l0,0
																c-0.1,0-0.1,0-0.2,0l0,0C89.3,708.9,89.2,708.7,89.3,708.4 M93.7,707.8c-0.2-0.1-0.4-0.3-0.6-1.2l0,0
																c-0.1,0.2-0.5,0.5-0.6,0.6l0,0c-0.1-0.1-0.1-0.2-0.2-0.3l0,0c-0.1-0.4-0.1-0.8,0.2-1.3l0,0c0.5-0.9,1-1.7,1.5-2.6
																l0,0c0.9-1.6,1.8-3.1,1.3-4.4l0,0c0.1,0,0.1,0,0.2,0l0,0l0.1,0.1l0,0c0.7,0.5,1.2,1.3,0.7,2.3l0,0
																c-0.5,1-1.9,2.3-2.4,3.4l0,0c-0.3,0.6-0.3,1.1-0.1,1.5l0,0c0.2,0.4,0.7,0.6,1.3,0.5l0,0c0.1,0,0.5-0.2,0.6-0.3l0,0
																c0.6-0.4,0.9-1,0.8-1.4l0,0c-0.1-0.3-0.3-0.4-0.6-0.3l0,0c-0.2,0.1-0.6,0.3-0.7,0.5l0,0c-0.1,0.2-0.1,0.4-0.1,0.6
																l0,0c-0.4,0-0.5,0-0.5-0.3l0,0c0-0.5,0.6-1.3,1.3-1.5l0,0c0.6-0.2,1.2,0.1,1.3,0.5l0,0c0.2,0.6,0,1.2-0.6,1.7l0,0
																c-0.3,0.2-0.5,0.5-0.6,0.7l0,0c-0.1,0.2,0,0.4,0.1,0.6l0,0v0.1l0,0c-0.7,0.3-0.9-0.2-1.3-0.4l0,0
																c-0.1,0.2-0.2,0.4-0.3,0.5l0,0c-0.2,0.3-0.3,0.4-0.4,0.4l0,0C93.9,708,93.8,707.9,93.7,707.8 M88.2,707
																c-0.1-0.1-0.2-0.3-0.1-0.6l0,0c0.2-0.4,0.7-0.9,1.2-1.1l0,0c1-0.5,1.9-1.2,2.6-2.2l0,0c0.1-0.2,0.2-0.3,0.3-0.5l0,0
																c-0.6,0.6-1.3,1.1-1.9,1.6l0,0c-0.7,0.6-1.3,0.8-1.8,0.8l0,0c-0.2,0-0.3-0.2-0.3-0.3l0,0c0-0.6,0.4-1.1,1-1.8l0,0
																c0.5-0.6,1-1.2,1.5-1.9l0,0c-0.1,0.1-0.2,0.2-0.3,0.3l0,0c-0.8,0.6-1.5,1.4-2,2.3l0,0c-0.3,0.4-1.5,2-2,1.2l0,0
																c-0.2-0.3,0.1-0.8,0.7-1.2l0,0c0.5-0.4,1-0.7,1.5-1.1l0,0c0-0.6,0.2-1,1-1.5l0,0c0.4-0.3,0.9-0.5,1.3-0.8l0,0
																c0.1-0.1,0.3-0.3,0.4-0.4l0,0c0.2-0.6,0.6-0.9,1-1.1l0,0c0.5-0.2,0.9-0.2,1.3-0.2l0,0c0.3,0,0.6,0.2,0.8,0.4l0,0
																c0.3,0.4,0.5,1.4,0,2.3l0,0c-0.1,0.3-0.4,0.6-0.7,0.8l0,0c-0.2,0.2-0.3,0.3-0.4,0.6l0,0c-0.2,0.5-0.5,1-0.9,1.5l0,0
																c-0.5,0.7-0.9,0.9-1.4,0.9l0,0c-0.4,0.5-0.8,1-1.3,1.5l0,0c-0.4,0.4-0.9,0.7-1.2,0.7l0,0C88.3,707,88.2,707,88.2,707
																 M84.8,702.5c0-0.7,1.1-0.8,1.3-0.7l0,0c0.3,0.1,0.5,0.4,0.8,0.5l0,0c0.2,0.1,0.5,0,0.9,0l0,0
																c-0.7,0.4-1.7,0.9-2.4,0.9l0,0C85,703.2,84.8,703,84.8,702.5 M86.3,701.2c-0.1,0-0.2-0.1-0.3-0.2l0,0
																c0.2-0.2,0.4-0.5,0.6-0.7l0,0c-0.3-0.1-0.5-0.1-0.8-0.2l0,0c-0.2-0.1-0.3-0.2-0.5-0.3l0,0c-0.3-0.3-0.2-0.4,0.2-0.7
																l0,0c0.2-0.1,0.3-0.2,0.5-0.4l0,0c-0.7-0.5-0.4-1.3-0.4-1.3l0,0c0.2,0.1,0.4,0.1,0.6,0l0,0c0.2-0.1,0.5-0.4,0.7-0.7
																l0,0c0.4-0.6,1-0.8,1.7-0.7l0,0c0.4,0.1,0.7,0.7,0.6,1.3l0,0c-0.1,0.7-0.9,1.4-1.4,1.4l0,0c-0.3,0-0.4-0.1-0.4-0.5
																l0,0c0.2,0,0.5,0,0.6-0.1l0,0c0.2-0.2,0.4-0.5,0.5-0.7l0,0c0.1-0.3,0-0.6-0.3-0.6l0,0c-0.5-0.1-1,0.3-1.4,0.9l0,0
																c-0.1,0.2-0.2,0.5-0.2,0.7l0,0c0,0.6,0.2,1.1,0.6,1.3l0,0c0.4,0.2,0.9,0.1,1.5-0.2l0,0c1-0.6,2.2-2,3.2-2.6l0,0
																c1-0.6,1.8-0.1,2.3,0.6l0,0c0,0,0.1,0,0.1,0.1l0,0c0,0,0,0.1,0,0.2l0,0c-1.4-0.4-2.8,0.6-4.3,1.6l0,0
																c-0.8,0.6-1.6,1.1-2.5,1.6l0,0c-0.4,0.2-0.7,0.3-1,0.3l0,0C86.5,701.2,86.4,701.2,86.3,701.2 M98,700.5
																c-0.7-0.4-1.1-1.4-0.4-2.8l0,0c0.2-0.3,0.4-0.7,0.6-1l0,0c0.9-1.2,1.9-2.1,3-3.1l0,0c0.6-0.6,1.2-1.2,1.8-1.9l0,0
																c1.5-1.7,1.2-3.7,1.3-3.8l0,0c0.7,1.1,1.3,2.2,0.7,4l0,0c-0.4,1.1-1.1,1.8-1.9,2.5l0,0c-0.6,0.5-1.2,0.9-1.8,1.4l0,0
																c-0.8,0.6-1.3,1.6-1.4,2.4l0,0c0,0.7,0.4,1,1.3,0.8l0,0c0.1,0,0.2,0,0.4-0.1l0,0c-0.3,0.6-0.9,1-1.4,1.3l0,0
																c-0.5,0.3-1,0.5-1.4,0.5l0,0C98.5,700.7,98.3,700.6,98,700.5 M96.8,695.9c1-1.7,1.9-3.5,2.7-5.3l0,0
																c0.4-0.9,1-1.7,1.6-2.5l0,0c0.2-0.3,0.6-0.4,1-0.4l0,0c0.2,0,0.4-0.1,0.5-0.4l0,0c1.9-3.4,3.3-7,4.5-10.5l0,0
																c0-0.1,0.1-0.3,0-0.4l0,0c-0.5-1-0.2-1.8,0.3-2.4l0,0c0.4-0.5,1.2-1.6,1.5-1.6l0,0c0.1,0.6,0.1,1.3,0.1,1.9l0,0
																c0,0.6,0,1.2-0.2,1.7l0,0c-0.1,0.3-0.5,0.5-0.7,0.8l0,0c-0.2,0.2-0.4,0.3-0.5,0.5l0,0c-1.2,3.4-2.7,6.9-4.6,10.2l0,0
																c-0.2,0.3-0.2,0.6-0.1,0.9l0,0c0.2,0.6,0,1.2-0.3,1.9l0,0c-0.9,1.6-2.1,2.8-3.3,3.9l0,0c-0.7,0.7-1.5,1.3-2.3,1.9
																l0,0c-0.1,0.1-0.2,0.1-0.4,0.2l0,0C96.7,696.1,96.7,696,96.8,695.9 M93.4,695.1c-0.6-0.5-1-1.2-0.9-2.3l0,0
																c0.1-0.8,0.6-1.8,1.1-2.2l0,0c0,0.4,0,0.7,0.1,1l0,0c0.1,0.6,0.6,1,1.2,0.9l0,0c0.5-0.1,1.3-0.7,1.5-1.4l0,0
																c0.4-1,0.7-2.1,1.1-3.1l0,0c0.4-1.2,1.1-1.9,2.1-2.2l0,0c0.8-0.2,1.6,0,2.4,0.3l0,0c-0.3,0.2-0.6,0.4-0.9,0.5l0,0
																c-0.9,0.5-1.4,1.4-1.9,2.4l0,0c-0.5,1.3-1,2.6-1.8,3.8l0,0c-0.5,0.8-1.1,1.5-1.8,2.1l0,0c-0.4,0.4-0.9,0.5-1.2,0.5
																l0,0C94,695.4,93.7,695.3,93.4,695.1 M86.8,686.8c-0.5,0.1-1.1,0.2-1.7,0.3l0,0c-0.2-0.7,0.1-1.3,0.5-1.8l0,0
																c0.4-0.5,0.9-0.9,1.3-1.3l0,0c-0.3-0.2-0.7-0.3-1-0.4l0,0c0.6-1.2,1.5-1.8,3-1.7l0,0c1.2,0.1,2.4,0.4,3.6,0.7l0,0
																c1.3,0.3,2.6,0.6,4,0.1l0,0c1.2-0.5,2-1.6,2.4-3l0,0c0.3-1.1,0.1-2.1-0.4-3.3l0,0c0,0,0.2-0.3,0.3-0.3l0,0
																c0.2,0.5,0.6,1.2,0.7,1.6l0,0c0.7,3.5-1.7,6-4.6,6.2l0,0c-1.1,0.1-2.3,0-3.5-0.1l0,0c-1,0-1.9,0-2.7,0.6l0,0
																c-1,0.7-1.5,2.2-0.7,3.5l0,0c0.5,0.7,1.4,1,2.1,0.6l0,0c0.5-0.2,0.9-1,0.9-1.5l0,0c0-0.4-0.1-0.7-0.5-0.9l0,0
																c-0.3-0.1-0.6,0-0.8,0.3l0,0l-0.1,0.1l0,0c-0.2-0.5,0.2-1.4,0.7-1.6l0,0c1-0.3,1.9,0.9,1.8,2.2l0,0
																c-0.2,1.1-0.7,2.1-1.7,2.5l0,0c-1.1,0.5-2,0.3-2.8-0.5l0,0c-0.1-0.1-0.2-0.2-0.3-0.2l0,0c-0.4,0.4-0.8,0.8-1.1,1.2
																l0,0C85.7,688.9,86.1,687.9,86.8,686.8 M92.3,685c1.1,0,2.2,1.4,1.7,2.7l0,0c-0.4,0.9-1.5,1.7-2.4,2.2l0,0
																C93,688.4,93.6,686.7,92.3,685 M106.4,683c0.4-0.7,0.6-1.4,0.9-2.1l0,0c1.1,0.6,1.8,1.9,1.4,3.3l0,0
																c-0.2,0.7-0.6,1.4-1,2l0,0c-0.3,0.5-0.6,0.9-0.9,1.4l0,0c-0.3,0.4-0.5,0.9-0.8,1.4l0,0
																C105.3,686.9,105.3,684.9,106.4,683 M102.3,680.4c0.3-0.9,1.3-1.2,2.3-0.9l0,0c0.3,0.1,0.6,0.3,0.9,0.4l0,0
																c-0.3,0.8-0.6,1.5-0.9,2.3l0,0c-0.6,1.7-1.6,2.5-2.9,2.7l0,0c-0.3,0.1-0.7,0.1-1.1,0.1l0,0
																C101.2,683.3,101.7,681.8,102.3,680.4 M90.7,680.5c0.2-0.1,0.3-0.2,0.5-0.3l0,0c-0.6-0.6-1.5-0.9-2-1.8l0,0
																c0.5,0,1,0,1.5,0l0,0c-0.2-0.6-0.7-1.7-0.6-1.8l0,0c2.8,2.7,5.4,2.9,8.4,2.4l0,0c-0.1,0.8-2,2.3-3.1,2.5l0,0
																c-0.4,0.1-0.7,0.1-1.1,0.1l0,0C93,681.8,91.9,681.3,90.7,680.5 M108.4,679.7c0.7,0.3,1.5,0.6,2.2,0.7l0,0
																c0,0.1-0.1,0.3-0.1,0.4l0,0c-0.1,0.3-0.3,0.6-0.4,1l0,0C109.4,681.1,108.7,680.4,108.4,679.7 M108.6,677.8
																c0,0-0.1-0.1-0.1-0.2l0,0c1.1-0.2,1.5-1.2,1.8-2.3l0,0c0.7,0.2,0.9,0.7,1.2,1.2l0,0c0.2-0.2,0.5-0.5,0.7-0.7l0,0
																c-0.2,0.8-0.5,1.7-0.8,2.5l0,0c-0.1,0-0.3,0-0.4,0l0,0C110.1,678.4,109.3,678.1,108.6,677.8 M98.8,673.8
																c0.1,0,0.3,0,0.4,0l0,0c-0.2-0.6-0.5-1.2-0.8-1.8l0,0c0,0,1,0.4,1.4,0.7l0,0c0.1-0.4,0.3-0.7,0.4-1.1l0,0
																c0.9,3,3,4.7,5.1,6.4l0,0c-0.2,0-0.3,0-0.5,0l0,0C102.9,678.1,100.1,676.5,98.8,673.8 M105.6,675.9
																c-0.7-0.6-1.4-1.3-1.8-2.3l0,0c-0.4-0.9-0.2-1.6,0.3-2.3l0,0c0.7,0.7,1.3,1.3,1.1,2.2l0,0c0.5,0,1,0.1,1.6,0.1l0,0
																c-0.5,1-0.7,1.9-0.1,3l0,0l-0.1,0.1l0,0C106.3,676.4,106,676.1,105.6,675.9 M110,674.5c0.4-0.6,0.6-1.2,1-1.7l0,0
																c0.3-0.3,0.7-0.6,1.2-0.3l0,0c0.2,0.1,0.4,0.3,0.6,0.5l0,0c-0.1,0.2-0.1,0.5-0.2,0.8l0,0c-0.4,0-0.7,0.2-0.9,0.4l0,0
																c-0.4,0.3-0.8,0.5-1.4,0.5l0,0C110.2,674.6,110.1,674.6,110,674.5 M106.1,671.5c-0.2-0.5-0.4-0.9-1-1.1l0,0
																c0.3-0.4,0.7-0.5,1.1-0.4l0,0c0.4,0.1,0.7,0.4,0.9,0.7l0,0c0.3,0.5,0.3,1.1,0.3,1.7l0,0c0,0.3-0.1,0.6-0.2,0.8l0,0
																C106.6,672.7,106.3,672.1,106.1,671.5 M110.7,670.6c0.5-0.3,1.3,0,1.7,0.9l0,0c-0.7-0.2-0.9,0.2-1.3,0.6l0,0
																c-0.3,0.3-0.7,0.5-1.1,0.8l0,0C109.8,672.1,110.1,671,110.7,670.6 M107.8,670.8c0-0.5,0-0.9-0.5-1.3l0,0
																c0.5-0.1,0.9,0,1.3,0.3l0,0c0.4,0.3,0.5,0.6,0.4,1l0,0c0,0.7-0.5,1.5-1.2,1.8l0,0
																C107.9,671.9,107.8,671.3,107.8,670.8 M109.9,668.8c0.1-0.1,0.1-0.1,0.2-0.2l0,0h0.1c0.1,0,0.2,0,0.3,0.1l0,0
																c0.3,0.2,0.4,0.3,0.4,0.6l0,0c-0.1,0.7-0.6,1.1-1.2,1.6l0,0C109.6,670.1,109.6,669.4,109.9,668.8"/>
														</g>
													</g>
												</g>
											</g>
										</g>
									</g>
								</g>
							</g>
						</g>
					</g>
				</g>
			</g>
		</g>
		<g id="g1434" transform="translate(60.6201,746.4946)">
			<path id="path1436" class="st2" d="M2.1-30l1,0.5L0.5-25l-1-0.5l1-1.7l-4.7-2.7l0.6-1l4.7,2.7L2.1-30z M6.4-35.2l-4.7-0.7l3,3.7
				l-0.9,1.6l-5.7-3.3l0.6-1L3-32.4l0,0l-3.4-4.1l0.5-0.8l5.2,0.9l0,0L1-39l0.6-1l5.7,3.3L6.4-35.2z"/>
		</g>
	</g>
</g>
<g id="g9107" transform="matrix(0.85604782,0,0,-0.85604782,-27.479222,786.43616)">
	<g id="g20" transform="translate(148.6736,735.7597)">
		<path id="path22" class="st72" d="M9.3-150.6c-1.8,0-2.6,2.4-2.6,8.9c0,3.4,1.7,4.3,6.4,4.3c1.2,0,2.2,0,3.2,0
			C14.8-142.1,12.8-150.6,9.3-150.6 M-0.3-146.1c0-1.7,0.2-3.2,0.5-4.5h-25c-3.3,0-5.4,0.8-5.4,3.8v8.5h7.9c0.6,1.9,1.1,3.7,1.3,5.5
			h-9.1c0,2.6,0.2,5,0.4,7.7c-3-1.1-5.3-2.3-7.2-4.4v-3.2h-4c-0.3-2.3-0.3-4-0.4-5.5h4.5v-8.9c0-6.3,3.8-8.9,9-8.9h34
			c4.2,0,7.4,3.4,10.4,11.1V-156h6.8v23.4c-3.1,0.3-5.9,0.4-8.9,0.4C5.8-132.3-0.3-135.8-0.3-146.1 M35.5-143.5v2.3
			c0,3-0.2,5.5-0.6,8.5h-6.6c0.2-3,0.4-5.5,0.4-8.5v-14.9h6.8c0,8.3,2.7,17.8,9.8,16.8c0,1.5-0.2,4.9-0.6,7
			C39.4-132.8,36.9-137.3,35.5-143.5 M-58.3-150.6c-1.8,0-2.6,2.4-2.6,8.9c0,3.4,1.7,4.3,6.4,4.3c1.2,0,2.2,0,3.2,0
			C-52.8-142.1-54.9-150.6-58.3-150.6 M-67.9-146.1c0-7.1,2.6-10.4,6-10.4c4.2,0,7.5,3.7,10.6,11.6V-156h6.8v23.4
			c-3.1,0.3-5.9,0.4-8.9,0.4C-61.9-132.3-67.9-135.8-67.9-146.1 M154-135.3c0,5.8-4,9.4-11.3,9.4c-4,0-6.9-0.9-8.7-1.7
			c-1-1.4-1.5-3.1-2.1-5.7c2.7,1.1,5.4,1.9,9.4,1.9c3.2,0,5.7-1.4,5.7-5.1c0-4-2.5-7-16.2-14.9c0-0.9,0-2.6,0.4-4.7h22.6
			c0.6,1.9,1.1,3.6,1.3,5.5h-19.2C145.4-147.3,154-143.9,154-135.3 M-83.9-149.6l-0.4,0.2c-4.1,2.2-9.6,5.5-9.6,11.5
			c0,5.5,3.6,8.1,7.9,8.1c4.8,0,7.7-3.4,7.7-9.2C-78.3-143-80.6-146.6-83.9-149.6 M-70.9-156.6l-11.2,6c6.3,2.3,11,6.9,11,13.3
			c0,8.7-6.5,13.1-14.9,13.1c-7.7,0-15.1-4.9-15.1-14.5c0-8,6.1-12.9,12.9-16.4l21.6-11.3C-66.6-161.4-67.2-158.5-70.9-156.6
			 M88.4-154c-1.9,0-7.9,3.9-7.9,14.3c0,5.1,3,8.3,7.9,8.3s7.9-3.2,7.9-8.3C96.3-150.1,90.4-154,88.4-154 M88.4-125.9
			c-8.5,0-14.9-5.1-14.9-13.4c0-10.9,10.4-17.2,14.9-17.2s14.9,6.4,14.9,17.2C103.3-131,96.9-125.9,88.4-125.9 M88.5-137.5
			c-1.5-1.1-2.8-2.3-3.9-3.7c1.1-1.4,2.4-2.7,3.9-3.7c1.5,1.1,2.8,2.3,3.9,3.7C91.3-139.8,90-138.6,88.5-137.5 M127.6-135.3
			c0,5.8-4,9.4-11.3,9.4c-4,0-6.9-0.9-8.7-1.7c-1-1.4-1.5-3.1-2.1-5.7c2.7,1.1,5.4,1.9,9.4,1.9c3.2,0,5.7-1.4,5.7-5.1
			c0-4-2.5-7-16.2-14.9c0-0.9,0-2.6,0.4-4.7h22.6c0.6,1.9,1.1,3.6,1.3,5.5h-19.2C119-147.3,127.6-143.9,127.6-135.3 M70.1-135.3
			c0,5.8-4,9.4-11.3,9.4c-4,0-6.9-0.9-8.7-1.7c-1-1.4-1.5-3.1-2.1-5.7c2.7,1.1,5.4,1.9,9.4,1.9c3.2,0,5.7-1.4,5.7-5.1
			c0-4-2.5-7-16.2-14.9c0-0.9,0-2.6,0.4-4.7h22.6c0.6,1.9,1.1,3.6,1.3,5.5H52C61.6-147.3,70.1-143.9,70.1-135.3"/>
	</g>
	<g id="g24" transform="translate(199.5872,750.6183)">
		<path id="path26" class="st72" d="M77.3-130.8c-1-0.2-2-0.5-3.2-0.7s-2.6-0.3-4.3-0.3c-1.7,0-3.4,0.2-5.1,0.7s-3.3,1.2-4.7,2.2
			s-2.5,2.3-3.4,4c-0.9,1.6-1.3,3.7-1.3,6.1c0,2.2,0.4,4.1,1.1,5.8c0.7,1.7,1.7,3,3,4.1s2.8,1.9,4.6,2.5c1.8,0.5,3.7,0.8,5.8,0.8
			c1.3,0,2.6-0.1,3.8-0.4c1.2-0.2,2.5-0.6,3.7-0.9l-0.5-5.5c-1.1,0.6-2.2,1.1-3.2,1.3c-1.1,0.3-2.2,0.4-3.3,0.4
			c-1.2,0-2.3-0.2-3.3-0.6s-1.8-1-2.5-1.7c-0.7-0.7-1.2-1.6-1.6-2.6c-0.4-1-0.6-2.1-0.6-3.3s0.2-2.3,0.6-3.3c0.4-1,1-1.8,1.7-2.5
			s1.6-1.2,2.7-1.6c1-0.4,2.2-0.5,3.4-0.5c1.1,0,2.2,0.1,3.3,0.4c1.1,0.2,2.1,0.6,3,0.9L77.3-130.8z"/>
	</g>
	<g id="g28" transform="translate(209.9575,754.4721)">
		<path id="path30" class="st72" d="M91.2-125.6c0-1.7-0.3-3.2-0.8-4.5s-1.3-2.3-2.3-3.1s-2.1-1.4-3.5-1.8c-1.4-0.4-2.9-0.6-4.5-0.6
			c-1.6,0-3.1,0.2-4.5,0.6c-1.4,0.4-2.5,1-3.5,1.8s-1.7,1.9-2.3,3.1c-0.5,1.3-0.8,2.7-0.8,4.5v15.7h6.7v-14.5c0-0.8,0.1-1.6,0.2-2.4
			c0.1-0.7,0.4-1.4,0.7-2c0.3-0.6,0.8-1,1.3-1.3c0.6-0.3,1.3-0.5,2.1-0.5c0.9,0,1.6,0.2,2.1,0.5c0.6,0.3,1,0.8,1.3,1.3
			c0.3,0.6,0.6,1.2,0.7,2c0.1,0.7,0.2,1.5,0.2,2.4v14.5H91v-15.7H91.2z"/>
	</g>
	<g id="g32" transform="translate(214.2768,756.1899)">
		<path id="path34" class="st72" d="M96.9-123.3h1.7c0.6,0,1.1,0.1,1.6,0.2s0.9,0.3,1.3,0.6c0.4,0.3,0.7,0.6,0.9,1.1
			c0.2,0.4,0.3,1,0.3,1.6c0,0.7-0.1,1.2-0.3,1.6c-0.2,0.4-0.5,0.8-0.9,1.1c-0.4,0.3-0.8,0.5-1.3,0.6s-1,0.2-1.6,0.2h-1.7V-123.3z
			 M90.2-111.7h8c3.9,0,6.7-0.7,8.6-2c1.8-1.3,2.7-3.4,2.7-6.3c0-2.6-0.9-4.6-2.6-6c-1.8-1.4-4.2-2.2-7.4-2.2h-2.6v-8.8h-6.7V-111.7
			z"/>
	</g>
	<g id="g36" transform="translate(130.1413,761.1741)">
		<path id="path38" class="st72" d="M-15.5-116.7h6.9l3.3-19.4h0.1l3.4,19.4h8.5l3.5-19.4h0.1l3.3,19.4h6.5l-5.6-25.2H5.8l-3.6,19.4
			h0l-3.3-19.4h-8.7L-15.5-116.7z"/>
	</g>
	<g id="g40" transform="translate(148.4519,755.772)">
		<path id="path42" class="st72" d="M9-123.9c0-1,0.1-2,0.3-3s0.5-1.8,1-2.6c0.5-0.7,1-1.3,1.8-1.8c0.7-0.4,1.6-0.7,2.6-0.7
			s1.9,0.2,2.6,0.7c0.7,0.4,1.3,1,1.8,1.8c0.5,0.7,0.8,1.6,1,2.6s0.3,2,0.3,3c0,1.1-0.1,2.1-0.3,3.1c-0.2,1-0.6,1.8-1,2.6
			c-0.5,0.7-1,1.3-1.8,1.8c-0.7,0.4-1.6,0.6-2.6,0.6s-1.9-0.2-2.6-0.6c-0.7-0.4-1.3-1-1.8-1.8c-0.5-0.7-0.8-1.6-1-2.6
			S9-122.8,9-123.9 M2-123.9c0,2,0.3,3.8,0.8,5.5c0.5,1.6,1.3,3,2.4,4.1s2.4,2,4,2.6s3.4,0.9,5.5,0.9s3.9-0.3,5.5-0.9s2.9-1.5,4-2.6
			s1.9-2.5,2.4-4.1c0.5-1.6,0.8-3.4,0.8-5.5c0-2-0.3-3.8-0.8-5.4c-0.5-1.6-1.4-3-2.4-4.1c-1.1-1.1-2.4-2-4-2.6s-3.4-0.9-5.4-0.9
			c-2.1,0-3.9,0.3-5.5,0.9c-1.6,0.6-2.9,1.5-4,2.6s-1.9,2.5-2.4,4.1C2.3-127.7,2-125.9,2-123.9"/>
	</g>
	<g id="g44" transform="translate(160.2769,756.6848)">
		<path id="path46" class="st72" d="M24.8-122.7h1.8c0.5,0,1.1,0,1.7,0.1c0.6,0,1.1,0.1,1.6,0.3c0.5,0.2,0.9,0.5,1.2,0.9
			c0.3,0.4,0.5,0.9,0.5,1.7c0,0.6-0.1,1.1-0.4,1.4c-0.3,0.4-0.6,0.7-1.1,0.9c-0.4,0.2-1,0.3-1.6,0.4s-1.2,0.1-1.9,0.1h-1.8
			C24.8-116.9,24.8-122.7,24.8-122.7z M18.1-112.2h12c1.1,0,2.2-0.1,3.1-0.4c1-0.3,1.9-0.6,2.6-1.2c0.7-0.5,1.3-1.2,1.8-2
			c0.4-0.8,0.6-1.7,0.6-2.8c0-1.7-0.4-3.1-1.2-4.2c-0.8-1.1-2-1.8-3.6-2.2v-0.1c0.5-0.1,1-0.4,1.3-0.7c0.3-0.3,0.6-0.7,0.8-1.2
			s0.5-1,0.7-1.6s0.5-1.3,0.8-2.1l2.5-6.9h-7L31-133c-0.3,1.1-0.7,2-1,2.7s-0.6,1.3-1,1.7s-0.7,0.7-1.2,0.9c-0.4,0.2-1,0.2-1.6,0.2
			h-1.4v-10h-6.7C18.1-137.5,18.1-112.2,18.1-112.2z"/>
	</g>
	<g id="g48" transform="translate(167.7686,761.1741)">
		<path id="path50" class="st72" d="M34.8-116.7h6.7v-20.2h10.4v-5H34.8V-116.7z"/>
	</g>
	<g id="g52" transform="translate(178.9899,752.5064)">
		<path id="path54" class="st72" d="M49.8-128.2h2.6c2.5,0,4.5,0.6,5.8,1.9c1.4,1.3,2,3.2,2,5.7c0,2.5-0.7,4.4-2.1,5.7
			c-1.4,1.3-3.3,1.9-5.8,1.9h-2.6L49.8-128.2L49.8-128.2z M43.1-108h9.2c2.2,0,4.2-0.2,6-0.6s3.4-1.1,4.7-2c1.3-1,2.3-2.2,3.1-3.8
			c0.7-1.6,1.1-3.6,1.1-6.1c0-2.4-0.4-4.4-1.1-6c-0.7-1.6-1.8-2.9-3.1-3.9c-1.3-1-2.9-1.7-4.7-2.2c-1.8-0.4-3.8-0.7-6-0.7h-9.2V-108
			z"/>
	</g>
	<g id="g56" transform="translate(95.2956,761.1741)">
		<path id="path58" class="st73" d="M-62-116.7v-25.2h7.9v9.1h5.7l2,5.5h-7.7v5.1h9.5l2,5.5C-42.6-116.7-62-116.7-62-116.7z"/>
	</g>
	<path id="path60" class="st73" d="M55.1,619.3H63v25.2h-7.9V619.3z"/>
	<g id="g62" transform="translate(110.2968,761.1741)">
		<path id="path64" class="st73" d="M-42-116.7v-25.2h7.9v9.1h5.7l2,5.5h-7.7v5.1h9.5l2,5.5C-22.6-116.7-42-116.7-42-116.7z"/>
	</g>
	<g id="g66" transform="translate(123.8303,753.8979)">
		<path id="path68" class="st73" d="M-23.9-126.4l-3.1,10.5l-3-10.5H-23.9z M-13.6-134.6h-7.9l-1,3.4h-8.9l-1-3.4h-7.7l9.2,25.2h8.2
			L-13.6-134.6z"/>
	</g>
</g>
</svg>
